sim.vcd
$date
	Sun Nov 12 11:07:00 2023
$end
$version
	Icarus Verilog
$end
$timescale
	1s
$end
$scope module adder $end
$var wire 8 ! a [7:0] $end
$var wire 8 " b [7:0] $end
$var wire 8 # y [7:0] $end
$upscope $end
$scope module testbench $end
$var wire 32 $ WriteData [31:0] $end
$var wire 1 % MemWrite $end
$var wire 32 & Adr [31:0] $end
$var reg 1 ' clk $end
$var reg 1 ( reset $end
$scope module dut $end
$var wire 1 ' clk $end
$var wire 1 ( reset $end
$var wire 32 ) WriteData [31:0] $end
$var wire 32 * ReadData [31:0] $end
$var wire 1 % MemWrite $end
$var wire 32 + Adr [31:0] $end
$scope module arm $end
$var wire 1 ' clk $end
$var wire 1 ( reset $end
$var wire 32 , WriteData [31:0] $end
$var wire 2 - ResultSrc [1:0] $end
$var wire 1 . RegWrite $end
$var wire 2 / RegSrc [1:0] $end
$var wire 32 0 ReadData [31:0] $end
$var wire 1 1 PCWrite $end
$var wire 1 % MemWrite $end
$var wire 32 2 Instr [31:0] $end
$var wire 2 3 ImmSrc [1:0] $end
$var wire 1 4 IRWrite $end
$var wire 1 5 AdrSrc $end
$var wire 32 6 Adr [31:0] $end
$var wire 2 7 ALUSrcB [1:0] $end
$var wire 2 8 ALUSrcA [1:0] $end
$var wire 4 9 ALUFlags [3:0] $end
$var wire 2 : ALUControl [1:0] $end
$scope module c $end
$var wire 20 ; Instr [31:12] $end
$var wire 1 ' clk $end
$var wire 1 ( reset $end
$var wire 2 < ResultSrc [1:0] $end
$var wire 1 . RegWrite $end
$var wire 1 = RegW $end
$var wire 2 > RegSrc [1:0] $end
$var wire 1 1 PCWrite $end
$var wire 1 ? PCS $end
$var wire 1 @ NextPC $end
$var wire 1 % MemWrite $end
$var wire 1 A MemW $end
$var wire 2 B ImmSrc [1:0] $end
$var wire 1 4 IRWrite $end
$var wire 2 C FlagW [1:0] $end
$var wire 1 5 AdrSrc $end
$var wire 2 D ALUSrcB [1:0] $end
$var wire 2 E ALUSrcA [1:0] $end
$var wire 4 F ALUFlags [3:0] $end
$var wire 2 G ALUControl [1:0] $end
$scope module cl $end
$var wire 4 H Cond [3:0] $end
$var wire 2 I FlagWrite [1:0] $end
$var wire 1 % MemWrite $end
$var wire 1 1 PCWrite $end
$var wire 1 . RegWrite $end
$var wire 1 ' clk $end
$var wire 1 ( reset $end
$var wire 1 = RegW $end
$var wire 1 ? PCS $end
$var wire 1 @ NextPC $end
$var wire 1 A MemW $end
$var wire 4 J Flags [3:0] $end
$var wire 2 K FlagW [1:0] $end
$var wire 1 L CondExDelayed $end
$var wire 1 M CondEx $end
$var wire 4 N ALUFlags [3:0] $end
$scope module cc $end
$var wire 4 O Cond [3:0] $end
$var wire 4 P Flags [3:0] $end
$var wire 1 Q ge $end
$var wire 1 R zero $end
$var wire 1 S overflow $end
$var wire 1 T neg $end
$var wire 1 U carry $end
$var reg 1 M CondEx $end
$upscope $end
$scope module condreg $end
$var wire 1 ' clk $end
$var wire 1 M d $end
$var wire 1 ( reset $end
$var reg 1 L q $end
$upscope $end
$scope module flagreg0 $end
$var wire 1 ' clk $end
$var wire 2 V d [1:0] $end
$var wire 1 W en $end
$var wire 1 ( reset $end
$var reg 2 X q [1:0] $end
$upscope $end
$scope module flagreg1 $end
$var wire 1 ' clk $end
$var wire 2 Y d [1:0] $end
$var wire 1 Z en $end
$var wire 1 ( reset $end
$var reg 2 [ q [1:0] $end
$upscope $end
$upscope $end
$scope module dec $end
$var wire 6 \ Funct [5:0] $end
$var wire 2 ] ImmSrc [1:0] $end
$var wire 2 ^ Op [1:0] $end
$var wire 1 ? PCS $end
$var wire 4 _ Rd [3:0] $end
$var wire 1 ' clk $end
$var wire 1 ( reset $end
$var wire 2 ` ResultSrc [1:0] $end
$var wire 1 = RegW $end
$var wire 2 a RegSrc [1:0] $end
$var wire 1 @ NextPC $end
$var wire 1 A MemW $end
$var wire 1 4 IRWrite $end
$var wire 1 b Branch $end
$var wire 1 5 AdrSrc $end
$var wire 2 c ALUSrcB [1:0] $end
$var wire 2 d ALUSrcA [1:0] $end
$var wire 1 e ALUOp $end
$var reg 2 f ALUControl [1:0] $end
$var reg 2 g FlagW [1:0] $end
$scope module fsm $end
$var wire 6 h Funct [5:0] $end
$var wire 2 i Op [1:0] $end
$var wire 1 ' clk $end
$var wire 1 ( reset $end
$var wire 2 j ResultSrc [1:0] $end
$var wire 1 = RegW $end
$var wire 1 @ NextPC $end
$var wire 1 A MemW $end
$var wire 1 4 IRWrite $end
$var wire 1 b Branch $end
$var wire 1 5 AdrSrc $end
$var wire 2 k ALUSrcB [1:0] $end
$var wire 2 l ALUSrcA [1:0] $end
$var wire 1 e ALUOp $end
$var reg 13 m controls [12:0] $end
$var reg 4 n nextstate [3:0] $end
$var reg 4 o state [3:0] $end
$upscope $end
$upscope $end
$upscope $end
$scope module dp $end
$var wire 2 p ALUControl [1:0] $end
$var wire 2 q ALUSrcA [1:0] $end
$var wire 2 r ALUSrcB [1:0] $end
$var wire 1 5 AdrSrc $end
$var wire 1 4 IRWrite $end
$var wire 2 s ImmSrc [1:0] $end
$var wire 1 1 PCWrite $end
$var wire 2 t RegSrc [1:0] $end
$var wire 1 . RegWrite $end
$var wire 2 u ResultSrc [1:0] $end
$var wire 1 ' clk $end
$var wire 1 ( reset $end
$var wire 32 v WriteData [31:0] $end
$var wire 32 w SrcB [31:0] $end
$var wire 32 x SrcA [31:0] $end
$var wire 32 y Result [31:0] $end
$var wire 32 z ReadData [31:0] $end
$var wire 32 { RD2 [31:0] $end
$var wire 32 | RD1 [31:0] $end
$var wire 4 } RA2 [3:0] $end
$var wire 4 ~ RA1 [3:0] $end
$var wire 32 !" PC [31:0] $end
$var wire 32 "" Instr [31:0] $end
$var wire 32 #" ExtImm [31:0] $end
$var wire 32 $" Data [31:0] $end
$var wire 32 %" Adr [31:0] $end
$var wire 32 &" ALUResult [31:0] $end
$var wire 32 '" ALUOut [31:0] $end
$var wire 4 (" ALUFlags [3:0] $end
$var wire 32 )" A [31:0] $end
$scope module adrmux $end
$var wire 1 5 s $end
$var wire 32 *" y [31:0] $end
$var wire 32 +" d1 [31:0] $end
$var wire 32 ," d0 [31:0] $end
$upscope $end
$scope module alu $end
$var wire 2 -" ALUControl [1:0] $end
$var wire 1 ." carry $end
$var wire 1 /" overflow $end
$var wire 1 0" zero $end
$var wire 33 1" sum [32:0] $end
$var wire 1 2" negative $end
$var wire 32 3" b [31:0] $end
$var wire 32 4" a [31:0] $end
$var wire 4 5" ALUFlags [3:0] $end
$var reg 32 6" Result [31:0] $end
$upscope $end
$scope module aluoutreg $end
$var wire 1 ' clk $end
$var wire 32 7" d [31:0] $end
$var wire 1 ( reset $end
$var reg 32 8" q [31:0] $end
$upscope $end
$scope module datareg $end
$var wire 1 ' clk $end
$var wire 1 ( reset $end
$var wire 32 9" d [31:0] $end
$var reg 32 :" q [31:0] $end
$upscope $end
$scope module ext $end
$var wire 2 ;" ImmSrc [1:0] $end
$var wire 24 <" Instr [23:0] $end
$var reg 32 =" ExtImm [31:0] $end
$upscope $end
$scope module ir $end
$var wire 1 ' clk $end
$var wire 1 4 en $end
$var wire 1 ( reset $end
$var wire 32 >" d [31:0] $end
$var reg 32 ?" q [31:0] $end
$upscope $end
$scope module pcreg $end
$var wire 1 ' clk $end
$var wire 1 1 en $end
$var wire 1 ( reset $end
$var wire 32 @" d [31:0] $end
$var reg 32 A" q [31:0] $end
$upscope $end
$scope module ra1mux $end
$var wire 4 B" d0 [3:0] $end
$var wire 4 C" d1 [3:0] $end
$var wire 1 D" s $end
$var wire 4 E" y [3:0] $end
$upscope $end
$scope module ra2mux $end
$var wire 4 F" d0 [3:0] $end
$var wire 4 G" d1 [3:0] $end
$var wire 1 H" s $end
$var wire 4 I" y [3:0] $end
$upscope $end
$scope module resmux $end
$var wire 32 J" d0 [31:0] $end
$var wire 32 K" d1 [31:0] $end
$var wire 32 L" d2 [31:0] $end
$var wire 2 M" s [1:0] $end
$var wire 32 N" y [31:0] $end
$upscope $end
$scope module rf $end
$var wire 1 ' clk $end
$var wire 32 O" r15 [31:0] $end
$var wire 4 P" ra1 [3:0] $end
$var wire 4 Q" ra2 [3:0] $end
$var wire 4 R" wa3 [3:0] $end
$var wire 32 S" wd3 [31:0] $end
$var wire 1 . we3 $end
$var wire 32 T" rd2 [31:0] $end
$var wire 32 U" rd1 [31:0] $end
$upscope $end
$scope module srcamux $end
$var wire 32 V" d1 [31:0] $end
$var wire 32 W" d2 [31:0] $end
$var wire 2 X" s [1:0] $end
$var wire 32 Y" y [31:0] $end
$var wire 32 Z" d0 [31:0] $end
$upscope $end
$scope module srcareg $end
$var wire 1 ' clk $end
$var wire 32 [" d [31:0] $end
$var wire 1 ( reset $end
$var reg 32 \" q [31:0] $end
$upscope $end
$scope module srcbmux $end
$var wire 32 ]" d1 [31:0] $end
$var wire 32 ^" d2 [31:0] $end
$var wire 2 _" s [1:0] $end
$var wire 32 `" y [31:0] $end
$var wire 32 a" d0 [31:0] $end
$upscope $end
$scope module wdreg $end
$var wire 1 ' clk $end
$var wire 32 b" d [31:0] $end
$var wire 1 ( reset $end
$var reg 32 c" q [31:0] $end
$upscope $end
$upscope $end
$upscope $end
$scope module mem $end
$var wire 32 d" a [31:0] $end
$var wire 1 ' clk $end
$var wire 32 e" rd [31:0] $end
$var wire 32 f" wd [31:0] $end
$var wire 1 % we $end
$upscope $end
$upscope $end
$upscope $end
$enddefinitions $end
#0
$dumpvars
b0 f"
b11100000010011110000000000001111 e"
b0 d"
b0 c"
bx b"
b0 a"
b100 `"
b10 _"
b100 ^"
b0 ]"
b0 \"
bx ["
b0 Z"
b0 Y"
b1 X"
b0 W"
b0 V"
bx U"
bx T"
b100 S"
b0 R"
b0 Q"
b0 P"
b100 O"
b100 N"
b10 M"
b100 L"
b0 K"
b0 J"
b0 I"
0H"
b0 G"
b0 F"
b0 E"
0D"
b1111 C"
b0 B"
b0 A"
b100 @"
b0 ?"
b11100000010011110000000000001111 >"
b0 ="
b0 <"
b0 ;"
b0 :"
b11100000010011110000000000001111 9"
b0 8"
b100 7"
b100 6"
b0 5"
b0 4"
b100 3"
02"
b100 1"
00"
0/"
0."
b0 -"
b0 ,"
b0 +"
b0 *"
b0 )"
b0 ("
b0 '"
b100 &"
b0 %"
b0 $"
b0 #"
b0 ""
b0 !"
b0 ~
b0 }
bx |
bx {
b11100000010011110000000000001111 z
b100 y
b0 x
b100 w
b0 v
b10 u
b0 t
b0 s
b10 r
b1 q
b0 p
b0 o
b1 n
b1000101001100 m
b1 l
b10 k
b10 j
b0 i
b0 h
b0 g
b0 f
0e
b1 d
b10 c
0b
b0 a
b10 `
b0 _
b0 ^
b0 ]
b0 \
b0 [
0Z
b0 Y
b0 X
0W
b0 V
0U
0T
0S
0R
1Q
b0 P
b0 O
b0 N
0M
0L
b0 K
b0 J
b0 I
b0 H
b0 G
b0 F
b1 E
b10 D
b0 C
b0 B
0A
1@
0?
b0 >
0=
b10 <
b0 ;
b0 :
b0 9
b1 8
b10 7
b0 6
05
14
b0 3
b0 2
11
b11100000010011110000000000001111 0
b0 /
0.
b10 -
b0 ,
b0 +
b11100000010011110000000000001111 *
b0 )
1(
1'
b0 &
0%
b0 $
bx #
bz "
bz !
$end
#5
0'
#10
1'
#15
0'
#20
1'
#22
0(
#25
0'
#30
b1000 y
b1000 @"
b1000 N"
b1000 O"
b1000 S"
b1000 {
b1000 T"
b1000 b"
b1000 |
b1000 U"
b1000 ["
1M
b1000 &"
b1000 6"
b1000 7"
b1000 L"
01
b1111 #"
b1111 ="
b1111 ]"
b1111 }
b1111 I"
b1111 Q"
b1111 ~
b1111 E"
b1111 P"
b100 \
b100 h
b1110 H
b1110 O
b1000 1"
b100 x
b100 4"
b100 Y"
b11100010100000000010000000000101 *
b11100010100000000010000000000101 0
b11100010100000000010000000000101 z
b11100010100000000010000000000101 9"
b11100010100000000010000000000101 >"
b11100010100000000010000000000101 e"
0@
04
b10011110000000000001111 <"
b1111 F"
b1111 B"
b11100000010011110000 ;
b100 &
b100 +
b100 6
b100 %"
b100 *"
b100 d"
b1001100 m
b110 n
b100 '"
b100 +"
b100 8"
b100 J"
b100 W"
bx $
bx )
bx ,
bx v
bx a"
bx c"
bx f"
bx )"
bx Z"
bx \"
b11100000010011110000000000001111 $"
b11100000010011110000000000001111 :"
b11100000010011110000000000001111 K"
b11100000010011110000000000001111 2
b11100000010011110000000000001111 ""
b11100000010011110000000000001111 ?"
b100 !"
b100 ,"
b100 A"
b100 V"
b1 o
1'
#35
0'
#40
b1 Y
b1000 x
b1000 4"
b1000 Y"
b100 9
b100 F
b100 N
b100 ("
b100 5"
10"
b1000 w
b1000 3"
b1000 `"
b0 &"
b0 6"
b0 7"
b0 L"
b0 1"
b1 :
b1 G
b1 f
b1 p
b1 -"
b0 -
b0 <
b0 `
b0 j
b0 u
b0 M"
b0 8
b0 E
b0 d
b0 l
b0 q
b0 X"
b0 7
b0 D
b0 c
b0 k
b0 r
b0 _"
1e
b1 m
b1000 n
b110 o
1L
b11100010100000000010000000000101 $"
b11100010100000000010000000000101 :"
b11100010100000000010000000000101 K"
b1000 )"
b1000 Z"
b1000 \"
b1000 $
b1000 )
b1000 ,
b1000 v
b1000 a"
b1000 c"
b1000 f"
b1000 '"
b1000 +"
b1000 8"
b1000 J"
b1000 W"
1'
#45
0'
#50
b0 V
0/"
0."
02"
b0 Y
b0 9
b0 F
b0 N
b0 ("
b0 5"
00"
b10000 &"
b10000 6"
b10000 7"
b10000 L"
b10000 1"
b0 |
b0 U"
b0 ["
b0 {
b0 T"
b0 b"
1.
b0 :
b0 G
b0 f
b0 p
b0 -"
b0 y
b0 @"
b0 N"
b0 O"
b0 S"
1=
0e
b1000000000 m
b0 n
b0 '"
b0 +"
b0 8"
b0 J"
b0 W"
b1000 o
1'
#55
0'
#60
b0 Y
b0 9
b0 F
b0 N
b0 ("
b0 5"
00"
11
0.
b1000 &"
b1000 6"
b1000 7"
b1000 L"
b1000 |
b1000 U"
b1000 ["
b1000 {
b1000 T"
b1000 b"
1@
0=
14
b10 -
b10 <
b10 `
b10 j
b10 u
b10 M"
b1 8
b1 E
b1 d
b1 l
b1 q
b1 X"
b10 7
b10 D
b10 c
b10 k
b10 r
b10 _"
b1000 1"
b100 x
b100 4"
b100 Y"
b100 w
b100 3"
b100 `"
b1000 y
b1000 @"
b1000 N"
b1000 O"
b1000 S"
b1000101001100 m
b1 n
b0 o
b0 )"
b0 Z"
b0 \"
b0 $
b0 )
b0 ,
b0 v
b0 a"
b0 c"
b0 f"
b10000 '"
b10000 +"
b10000 8"
b10000 J"
b10000 W"
1'
#65
0'
#70
b1100 y
b1100 @"
b1100 N"
b1100 O"
b1100 S"
bx {
bx T"
bx b"
b0 |
b0 U"
b0 ["
b1100 &"
b1100 6"
b1100 7"
b1100 L"
01
b101 #"
b101 ="
b101 ]"
b101 }
b101 I"
b101 Q"
b0 ~
b0 E"
b0 P"
b101000 \
b101000 h
b10 _
b1100 1"
b1000 x
b1000 4"
b1000 Y"
b11100010100000000011000000001100 *
b11100010100000000011000000001100 0
b11100010100000000011000000001100 z
b11100010100000000011000000001100 9"
b11100010100000000011000000001100 >"
b11100010100000000011000000001100 e"
0@
04
b100000000010000000000101 <"
b10 R"
b10 G"
b101 F"
b0 B"
b11100010100000000010 ;
b1000 &
b1000 +
b1000 6
b1000 %"
b1000 *"
b1000 d"
b1001100 m
b111 n
b1000 '"
b1000 +"
b1000 8"
b1000 J"
b1000 W"
b1000 $
b1000 )
b1000 ,
b1000 v
b1000 a"
b1000 c"
b1000 f"
b1000 )"
b1000 Z"
b1000 \"
b11100010100000000010000000000101 2
b11100010100000000010000000000101 ""
b11100010100000000010000000000101 ?"
b1000 !"
b1000 ,"
b1000 A"
b1000 V"
b1 o
1'
#75
0'
#80
b101 &"
b101 6"
b101 7"
b101 L"
b0 x
b0 4"
b0 Y"
b101 1"
b101 w
b101 3"
b101 `"
b0 -
b0 <
b0 `
b0 j
b0 u
b0 M"
b0 8
b0 E
b0 d
b0 l
b0 q
b0 X"
b1 7
b1 D
b1 c
b1 k
b1 r
b1 _"
1e
b11 m
b1000 n
b111 o
b11100010100000000011000000001100 $"
b11100010100000000011000000001100 :"
b11100010100000000011000000001100 K"
b0 )"
b0 Z"
b0 \"
bx $
bx )
bx ,
bx v
bx a"
bx c"
bx f"
b1100 '"
b1100 +"
b1100 8"
b1100 J"
b1100 W"
1'
#85
0'
#90
bx V
x/"
x."
x2"
bx Y
bx 9
bx F
bx N
bx ("
bx 5"
x0"
bx &"
bx 6"
bx 7"
bx L"
bx 1"
bx w
bx 3"
bx `"
1.
b101 y
b101 @"
b101 N"
b101 O"
b101 S"
1=
b0 7
b0 D
b0 c
b0 k
b0 r
b0 _"
0e
b1000000000 m
b0 n
b101 '"
b101 +"
b101 8"
b101 J"
b101 W"
b1000 o
1'
#95
0'
#100
b0 V
0/"
0."
02"
b0 Y
b0 9
b0 F
b0 N
b0 ("
b0 5"
00"
b1100 &"
b1100 6"
b1100 7"
b1100 L"
b1000 x
b1000 4"
b1000 Y"
b1100 1"
b100 w
b100 3"
b100 `"
11
0.
1@
0=
14
b10 -
b10 <
b10 `
b10 j
b10 u
b10 M"
b1 8
b1 E
b1 d
b1 l
b1 q
b1 X"
b10 7
b10 D
b10 c
b10 k
b10 r
b10 _"
b1100 y
b1100 @"
b1100 N"
b1100 O"
b1100 S"
b1000101001100 m
b1 n
b0 o
bx '"
bx +"
bx 8"
bx J"
bx W"
1'
#105
0'
#110
b10000 y
b10000 @"
b10000 N"
b10000 O"
b10000 S"
b10000 &"
b10000 6"
b10000 7"
b10000 L"
01
b1100 #"
b1100 ="
b1100 ]"
b1100 }
b1100 I"
b1100 Q"
b11 _
b10000 1"
b1100 x
b1100 4"
b1100 Y"
b11100010010000110111000000001001 *
b11100010010000110111000000001001 0
b11100010010000110111000000001001 z
b11100010010000110111000000001001 9"
b11100010010000110111000000001001 >"
b11100010010000110111000000001001 e"
0@
04
b100000000011000000001100 <"
b11 R"
b11 G"
b1100 F"
b11100010100000000011 ;
b1100 &
b1100 +
b1100 6
b1100 %"
b1100 *"
b1100 d"
b1001100 m
b111 n
b1100 '"
b1100 +"
b1100 8"
b1100 J"
b1100 W"
b11100010100000000011000000001100 2
b11100010100000000011000000001100 ""
b11100010100000000011000000001100 ?"
b1100 !"
b1100 ,"
b1100 A"
b1100 V"
b1 o
1'
#115
0'
#120
b1100 &"
b1100 6"
b1100 7"
b1100 L"
b0 x
b0 4"
b0 Y"
b1100 1"
b1100 w
b1100 3"
b1100 `"
b0 -
b0 <
b0 `
b0 j
b0 u
b0 M"
b0 8
b0 E
b0 d
b0 l
b0 q
b0 X"
b1 7
b1 D
b1 c
b1 k
b1 r
b1 _"
1e
b11 m
b1000 n
b111 o
b11100010010000110111000000001001 $"
b11100010010000110111000000001001 :"
b11100010010000110111000000001001 K"
b10000 '"
b10000 +"
b10000 8"
b10000 J"
b10000 W"
1'
#125
0'
#130
bx V
x/"
x."
x2"
bx Y
bx 9
bx F
bx N
bx ("
bx 5"
x0"
bx &"
bx 6"
bx 7"
bx L"
bx 1"
bx w
bx 3"
bx `"
1.
b1100 y
b1100 @"
b1100 N"
b1100 O"
b1100 S"
1=
b0 7
b0 D
b0 c
b0 k
b0 r
b0 _"
0e
b1000000000 m
b0 n
b1100 '"
b1100 +"
b1100 8"
b1100 J"
b1100 W"
b1000 o
1'
#135
0'
#140
b0 V
0/"
0."
02"
b0 Y
b0 9
b0 F
b0 N
b0 ("
b0 5"
00"
b10000 &"
b10000 6"
b10000 7"
b10000 L"
b1100 x
b1100 4"
b1100 Y"
b10000 1"
b100 w
b100 3"
b100 `"
11
0.
1@
0=
14
b10 -
b10 <
b10 `
b10 j
b10 u
b10 M"
b1 8
b1 E
b1 d
b1 l
b1 q
b1 X"
b10 7
b10 D
b10 c
b10 k
b10 r
b10 _"
b10000 y
b10000 @"
b10000 N"
b10000 O"
b10000 S"
b1000101001100 m
b1 n
b0 o
bx '"
bx +"
bx 8"
bx J"
bx W"
1'
#145
0'
#150
b10100 y
b10100 @"
b10100 N"
b10100 O"
b10100 S"
b1100 |
b1100 U"
b1100 ["
b10100 &"
b10100 6"
b10100 7"
b10100 L"
01
b1001 #"
b1001 ="
b1001 ]"
b1001 }
b1001 I"
b1001 Q"
b11 ~
b11 E"
b11 P"
b100100 \
b100100 h
b111 _
b10100 1"
b10000 x
b10000 4"
b10000 Y"
b11100001100001110100000000000010 *
b11100001100001110100000000000010 0
b11100001100001110100000000000010 z
b11100001100001110100000000000010 9"
b11100001100001110100000000000010 >"
b11100001100001110100000000000010 e"
0@
04
b10000110111000000001001 <"
b111 R"
b111 G"
b1001 F"
b11 B"
b11100010010000110111 ;
b10000 &
b10000 +
b10000 6
b10000 %"
b10000 *"
b10000 d"
b1001100 m
b111 n
b10000 '"
b10000 +"
b10000 8"
b10000 J"
b10000 W"
b11100010010000110111000000001001 2
b11100010010000110111000000001001 ""
b11100010010000110111000000001001 ?"
b10000 !"
b10000 ,"
b10000 A"
b10000 V"
b1 o
1'
#155
0'
#160
b1100 x
b1100 4"
b1100 Y"
b1001 w
b1001 3"
b1001 `"
b11 &"
b11 6"
b11 7"
b11 L"
b11 1"
b1 :
b1 G
b1 f
b1 p
b1 -"
b0 -
b0 <
b0 `
b0 j
b0 u
b0 M"
b0 8
b0 E
b0 d
b0 l
b0 q
b0 X"
b1 7
b1 D
b1 c
b1 k
b1 r
b1 _"
1e
b11 m
b1000 n
b111 o
b11100001100001110100000000000010 $"
b11100001100001110100000000000010 :"
b11100001100001110100000000000010 K"
b1100 )"
b1100 Z"
b1100 \"
b10100 '"
b10100 +"
b10100 8"
b10100 J"
b10100 W"
1'
#165
0'
#170
bx V
x/"
x."
x2"
bx Y
bx 9
bx F
bx N
bx ("
bx 5"
x0"
bx w
bx 3"
bx `"
bx &"
bx 6"
bx 7"
bx L"
bx 1"
1.
b0 :
b0 G
b0 f
b0 p
b0 -"
b11 y
b11 @"
b11 N"
b11 O"
b11 S"
1=
b0 7
b0 D
b0 c
b0 k
b0 r
b0 _"
0e
b1000000000 m
b0 n
b11 '"
b11 +"
b11 8"
b11 J"
b11 W"
b1000 o
1'
#175
0'
#180
b0 V
0/"
0."
02"
b0 Y
b0 9
b0 F
b0 N
b0 ("
b0 5"
00"
b10100 &"
b10100 6"
b10100 7"
b10100 L"
b10000 x
b10000 4"
b10000 Y"
b10100 1"
b100 w
b100 3"
b100 `"
11
0.
1@
0=
14
b10 -
b10 <
b10 `
b10 j
b10 u
b10 M"
b1 8
b1 E
b1 d
b1 l
b1 q
b1 X"
b10 7
b10 D
b10 c
b10 k
b10 r
b10 _"
b10100 y
b10100 @"
b10100 N"
b10100 O"
b10100 S"
b1000101001100 m
b1 n
b0 o
bx '"
bx +"
bx 8"
bx J"
bx W"
1'
#185
0'
#190
b11000 y
b11000 @"
b11000 N"
b11000 O"
b11000 S"
b101 {
b101 T"
b101 b"
b11 |
b11 U"
b11 ["
b11000 &"
b11000 6"
b11000 7"
b11000 L"
01
b10 #"
b10 ="
b10 ]"
b10 }
b10 I"
b10 Q"
b111 ~
b111 E"
b111 P"
b11000 \
b11000 h
b100 _
b11000 1"
b10100 x
b10100 4"
b10100 Y"
b11100000000000110101000000000100 *
b11100000000000110101000000000100 0
b11100000000000110101000000000100 z
b11100000000000110101000000000100 9"
b11100000000000110101000000000100 >"
b11100000000000110101000000000100 e"
0@
04
b100001110100000000000010 <"
b100 R"
b100 G"
b10 F"
b111 B"
b11100001100001110100 ;
b10100 &
b10100 +
b10100 6
b10100 %"
b10100 *"
b10100 d"
b1001100 m
b110 n
b10100 '"
b10100 +"
b10100 8"
b10100 J"
b10100 W"
b11100001100001110100000000000010 2
b11100001100001110100000000000010 ""
b11100001100001110100000000000010 ?"
b10100 !"
b10100 ,"
b10100 A"
b10100 V"
b1 o
1'
#195
0'
#200
b11 x
b11 4"
b11 Y"
b101 w
b101 3"
b101 `"
b111 &"
b111 6"
b111 7"
b111 L"
b111111111111111111111111111111110 1"
b11 :
b11 G
b11 f
b11 p
b11 -"
b0 -
b0 <
b0 `
b0 j
b0 u
b0 M"
b0 8
b0 E
b0 d
b0 l
b0 q
b0 X"
b0 7
b0 D
b0 c
b0 k
b0 r
b0 _"
1e
b1 m
b1000 n
b110 o
b11100000000000110101000000000100 $"
b11100000000000110101000000000100 :"
b11100000000000110101000000000100 K"
b11 )"
b11 Z"
b11 \"
b101 $
b101 )
b101 ,
b101 v
b101 a"
b101 c"
b101 f"
b11000 '"
b11000 +"
b11000 8"
b11000 J"
b11000 W"
1'
#205
0'
#210
b0 V
0/"
b0 Y
0."
b0 9
b0 F
b0 N
b0 ("
b0 5"
02"
b1000 &"
b1000 6"
b1000 7"
b1000 L"
b1000 1"
1.
b0 :
b0 G
b0 f
b0 p
b0 -"
b111 y
b111 @"
b111 N"
b111 O"
b111 S"
1=
0e
b1000000000 m
b0 n
b111 '"
b111 +"
b111 8"
b111 J"
b111 W"
b1000 o
1'
#215
0'
#220
b11000 &"
b11000 6"
b11000 7"
b11000 L"
b10100 x
b10100 4"
b10100 Y"
b11000 1"
b100 w
b100 3"
b100 `"
11
0.
1@
0=
14
b10 -
b10 <
b10 `
b10 j
b10 u
b10 M"
b1 8
b1 E
b1 d
b1 l
b1 q
b1 X"
b10 7
b10 D
b10 c
b10 k
b10 r
b10 _"
b11000 y
b11000 @"
b11000 N"
b11000 O"
b11000 S"
b1000101001100 m
b1 n
b0 o
b1000 '"
b1000 +"
b1000 8"
b1000 J"
b1000 W"
1'
#225
0'
#230
b11100 y
b11100 @"
b11100 N"
b11100 O"
b11100 S"
b111 {
b111 T"
b111 b"
b1100 |
b1100 U"
b1100 ["
b11100 &"
b11100 6"
b11100 7"
b11100 L"
01
b100 #"
b100 ="
b100 ]"
b100 }
b100 I"
b100 Q"
b11 ~
b11 E"
b11 P"
b0 \
b0 h
b101 _
b11100 1"
b11000 x
b11000 4"
b11000 Y"
b11100000100001010101000000000100 *
b11100000100001010101000000000100 0
b11100000100001010101000000000100 z
b11100000100001010101000000000100 9"
b11100000100001010101000000000100 >"
b11100000100001010101000000000100 e"
0@
04
b110101000000000100 <"
b101 R"
b101 G"
b100 F"
b11 B"
b11100000000000110101 ;
b11000 &
b11000 +
b11000 6
b11000 %"
b11000 *"
b11000 d"
b1001100 m
b110 n
b11000 '"
b11000 +"
b11000 8"
b11000 J"
b11000 W"
b11100000000000110101000000000100 2
b11100000000000110101000000000100 ""
b11100000000000110101000000000100 ?"
b11000 !"
b11000 ,"
b11000 A"
b11000 V"
b1 o
1'
#235
0'
#240
b1100 x
b1100 4"
b1100 Y"
b10011 1"
b0 Y
b111 w
b111 3"
b111 `"
b0 9
b0 F
b0 N
b0 ("
b0 5"
00"
b100 &"
b100 6"
b100 7"
b100 L"
b10 :
b10 G
b10 f
b10 p
b10 -"
b0 -
b0 <
b0 `
b0 j
b0 u
b0 M"
b0 8
b0 E
b0 d
b0 l
b0 q
b0 X"
b0 7
b0 D
b0 c
b0 k
b0 r
b0 _"
1e
b1 m
b1000 n
b110 o
b11100000100001010101000000000100 $"
b11100000100001010101000000000100 :"
b11100000100001010101000000000100 K"
b1100 )"
b1100 Z"
b1100 \"
b111 $
b111 )
b111 ,
b111 v
b111 a"
b111 c"
b111 f"
b11100 '"
b11100 +"
b11100 8"
b11100 J"
b11100 W"
1'
#245
0'
#250
b10011 &"
b10011 6"
b10011 7"
b10011 L"
1.
b0 :
b0 G
b0 f
b0 p
b0 -"
b100 y
b100 @"
b100 N"
b100 O"
b100 S"
1=
0e
b1000000000 m
b0 n
b100 '"
b100 +"
b100 8"
b100 J"
b100 W"
b1000 o
1'
#255
0'
#260
b11100 &"
b11100 6"
b11100 7"
b11100 L"
b11000 x
b11000 4"
b11000 Y"
b11100 1"
b100 w
b100 3"
b100 `"
11
0.
1@
0=
14
b10 -
b10 <
b10 `
b10 j
b10 u
b10 M"
b1 8
b1 E
b1 d
b1 l
b1 q
b1 X"
b10 7
b10 D
b10 c
b10 k
b10 r
b10 _"
b11100 y
b11100 @"
b11100 N"
b11100 O"
b11100 S"
b1000101001100 m
b1 n
b0 o
b10011 '"
b10011 +"
b10011 8"
b10011 J"
b10011 W"
1'
#265
0'
#270
b100000 y
b100000 @"
b100000 N"
b100000 O"
b100000 S"
b100 |
b100 U"
b100 ["
b100000 &"
b100000 6"
b100000 7"
b100000 L"
01
b101 ~
b101 E"
b101 P"
b1000 \
b1000 h
b100000 1"
b11100 x
b11100 4"
b11100 Y"
b11100000010101011000000000000111 *
b11100000010101011000000000000111 0
b11100000010101011000000000000111 z
b11100000010101011000000000000111 9"
b11100000010101011000000000000111 >"
b11100000010101011000000000000111 e"
0@
04
b100001010101000000000100 <"
b101 B"
b11100000100001010101 ;
b11100 &
b11100 +
b11100 6
b11100 %"
b11100 *"
b11100 d"
b1001100 m
b110 n
b11100 '"
b11100 +"
b11100 8"
b11100 J"
b11100 W"
b11100000100001010101000000000100 2
b11100000100001010101000000000100 ""
b11100000100001010101000000000100 ?"
b11100 !"
b11100 ,"
b11100 A"
b11100 V"
b1 o
1'
#275
0'
