src/multi_tb.vcd
$date
	Sat Nov 25 05:36:37 2023
$end
$version
	Icarus Verilog
$end
$timescale
	1s
$end
$scope module testbench $end
$var wire 32 ! WriteData [31:0] $end
$var wire 1 " MemWrite $end
$var wire 32 # DataAdr [31:0] $end
$var reg 1 $ clk $end
$var reg 1 % reset $end
$scope module dut $end
$var wire 1 $ clk $end
$var wire 1 % reset $end
$var wire 32 & WriteData [31:0] $end
$var wire 32 ' ReadData [31:0] $end
$var wire 1 " MemWrite $end
$var wire 32 ( Adr [31:0] $end
$scope module arm $end
$var wire 1 $ clk $end
$var wire 1 % reset $end
$var wire 1 ) isShift $end
$var wire 32 * WriteData [31:0] $end
$var wire 2 + ResultSrc [1:0] $end
$var wire 1 , RegWrite $end
$var wire 2 - RegSrc [1:0] $end
$var wire 32 . ReadData [31:0] $end
$var wire 1 / PCWrite $end
$var wire 1 " MemWrite $end
$var wire 32 0 Instr [31:0] $end
$var wire 2 1 ImmSrc [1:0] $end
$var wire 1 2 IRWrite $end
$var wire 1 3 AdrSrc $end
$var wire 32 4 Adr [31:0] $end
$var wire 2 5 ALUSrcB [1:0] $end
$var wire 2 6 ALUSrcA [1:0] $end
$var wire 4 7 ALUFlags [3:0] $end
$var wire 3 8 ALUControl [2:0] $end
$scope module c $end
$var wire 20 9 Instr [31:12] $end
$var wire 1 $ clk $end
$var wire 1 % reset $end
$var wire 1 ) isShift $end
$var wire 2 : ResultSrc [1:0] $end
$var wire 1 , RegWrite $end
$var wire 1 ; RegW $end
$var wire 2 < RegSrc [1:0] $end
$var wire 1 / PCWrite $end
$var wire 1 = PCS $end
$var wire 1 > NextPC $end
$var wire 1 " MemWrite $end
$var wire 1 ? MemW $end
$var wire 2 @ ImmSrc [1:0] $end
$var wire 1 2 IRWrite $end
$var wire 2 A FlagW [1:0] $end
$var wire 1 3 AdrSrc $end
$var wire 2 B ALUSrcB [1:0] $end
$var wire 2 C ALUSrcA [1:0] $end
$var wire 4 D ALUFlags [3:0] $end
$var wire 3 E ALUControl [2:0] $end
$scope module cl $end
$var wire 4 F Cond [3:0] $end
$var wire 2 G FlagWrite [1:0] $end
$var wire 1 " MemWrite $end
$var wire 1 / PCWrite $end
$var wire 1 , RegWrite $end
$var wire 1 $ clk $end
$var wire 1 % reset $end
$var wire 1 ; RegW $end
$var wire 1 = PCS $end
$var wire 1 > NextPC $end
$var wire 1 ? MemW $end
$var wire 4 H Flags [3:0] $end
$var wire 2 I FlagW [1:0] $end
$var wire 1 J CondExDelayed $end
$var wire 1 K CondEx $end
$var wire 4 L ALUFlags [3:0] $end
$scope module cc $end
$var wire 4 M Cond [3:0] $end
$var wire 4 N Flags [3:0] $end
$var wire 1 O ge $end
$var wire 1 P zero $end
$var wire 1 Q overflow $end
$var wire 1 R neg $end
$var wire 1 S carry $end
$var reg 1 K CondEx $end
$upscope $end
$scope module condreg $end
$var wire 1 $ clk $end
$var wire 1 K d $end
$var wire 1 % reset $end
$var reg 1 J q $end
$upscope $end
$scope module flagreg0 $end
$var wire 1 $ clk $end
$var wire 2 T d [1:0] $end
$var wire 1 U en $end
$var wire 1 % reset $end
$var reg 2 V q [1:0] $end
$upscope $end
$scope module flagreg1 $end
$var wire 1 $ clk $end
$var wire 2 W d [1:0] $end
$var wire 1 X en $end
$var wire 1 % reset $end
$var reg 2 Y q [1:0] $end
$upscope $end
$upscope $end
$scope module dec $end
$var wire 6 Z Funct [5:0] $end
$var wire 2 [ ImmSrc [1:0] $end
$var wire 2 \ Op [1:0] $end
$var wire 1 = PCS $end
$var wire 4 ] Rd [3:0] $end
$var wire 1 $ clk $end
$var wire 1 ) isShift $end
$var wire 1 % reset $end
$var wire 2 ^ ResultSrc [1:0] $end
$var wire 1 ; RegW $end
$var wire 1 > NextPC $end
$var wire 1 ? MemW $end
$var wire 1 2 IRWrite $end
$var wire 1 _ Branch $end
$var wire 1 3 AdrSrc $end
$var wire 2 ` ALUSrcB [1:0] $end
$var wire 2 a ALUSrcA [1:0] $end
$var wire 1 b ALUOp $end
$var reg 3 c ALUControl [2:0] $end
$var reg 2 d FlagW [1:0] $end
$var reg 2 e RegSrc [1:0] $end
$scope module fsm $end
$var wire 6 f Funct [5:0] $end
$var wire 2 g Op [1:0] $end
$var wire 1 $ clk $end
$var wire 1 % reset $end
$var wire 2 h ResultSrc [1:0] $end
$var wire 1 ; RegW $end
$var wire 1 > NextPC $end
$var wire 1 ? MemW $end
$var wire 1 2 IRWrite $end
$var wire 1 _ Branch $end
$var wire 1 3 AdrSrc $end
$var wire 2 i ALUSrcB [1:0] $end
$var wire 2 j ALUSrcA [1:0] $end
$var wire 1 b ALUOp $end
$var reg 13 k controls [12:0] $end
$var reg 4 l nextstate [3:0] $end
$var reg 4 m state [3:0] $end
$upscope $end
$upscope $end
$upscope $end
$scope module dp $end
$var wire 3 n ALUControl [2:0] $end
$var wire 2 o ALUSrcA [1:0] $end
$var wire 2 p ALUSrcB [1:0] $end
$var wire 1 3 AdrSrc $end
$var wire 1 2 IRWrite $end
$var wire 2 q ImmSrc [1:0] $end
$var wire 1 / PCWrite $end
$var wire 2 r RegSrc [1:0] $end
$var wire 1 , RegWrite $end
$var wire 2 s ResultSrc [1:0] $end
$var wire 1 $ clk $end
$var wire 1 ) isShift $end
$var wire 1 % reset $end
$var wire 32 t value_A [31:0] $end
$var wire 32 u toMuxB [31:0] $end
$var wire 32 v WriteData [31:0] $end
$var wire 32 w SrcB [31:0] $end
$var wire 32 x SrcA [31:0] $end
$var wire 32 y Result [31:0] $end
$var wire 32 z ReadData [31:0] $end
$var wire 32 { RD2 [31:0] $end
$var wire 32 | RD1 [31:0] $end
$var wire 4 } RA2 [3:0] $end
$var wire 4 ~ RA1 [3:0] $end
$var wire 32 !" PC [31:0] $end
$var wire 32 "" Instr [31:0] $end
$var wire 32 #" ExtImm [31:0] $end
$var wire 32 $" Data [31:0] $end
$var wire 32 %" Adr [31:0] $end
$var wire 32 &" ALUResult [31:0] $end
$var wire 32 '" ALUOut [31:0] $end
$var wire 4 (" ALUFlags [3:0] $end
$var wire 32 )" A [31:0] $end
$scope module adrmux $end
$var wire 1 3 s $end
$var wire 32 *" y [31:0] $end
$var wire 32 +" d1 [31:0] $end
$var wire 32 ," d0 [31:0] $end
$upscope $end
$scope module alu $end
$var wire 3 -" ALUControl [2:0] $end
$var wire 1 ." carry $end
$var wire 1 /" neg $end
$var wire 1 0" overflow $end
$var wire 1 1" zero $end
$var wire 33 2" sum [32:0] $end
$var wire 16 3" multiplier [15:0] $end
$var wire 32 4" condinvb [31:0] $end
$var wire 32 5" b [31:0] $end
$var wire 32 6" a [31:0] $end
$var wire 4 7" ALUFlags [3:0] $end
$var reg 32 8" Result [31:0] $end
$scope module u1_fmul $end
$var wire 16 9" A [15:0] $end
$var wire 16 :" B [15:0] $end
$var reg 5 ;" E [4:0] $end
$var reg 11 <" m1 [10:0] $end
$var reg 11 =" m2 [10:0] $end
$var reg 10 >" mantisa [9:0] $end
$var reg 16 ?" result [15:0] $end
$var reg 22 @" temp_mantisa [21:0] $end
$var integer 32 A" i [31:0] $end
$upscope $end
$upscope $end
$scope module aluresultreg $end
$var wire 1 $ clk $end
$var wire 32 B" d [31:0] $end
$var wire 1 % reset $end
$var reg 32 C" q [31:0] $end
$upscope $end
$scope module ext $end
$var wire 2 D" ImmSrc [1:0] $end
$var wire 24 E" Instr [23:0] $end
$var reg 32 F" ExtImm [31:0] $end
$upscope $end
$scope module instrreg $end
$var wire 1 $ clk $end
$var wire 1 2 en $end
$var wire 1 % reset $end
$var wire 32 G" d [31:0] $end
$var reg 32 H" q [31:0] $end
$upscope $end
$scope module pcreg $end
$var wire 1 $ clk $end
$var wire 1 / en $end
$var wire 1 % reset $end
$var wire 32 I" d [31:0] $end
$var reg 32 J" q [31:0] $end
$upscope $end
$scope module r1Reg $end
$var wire 1 $ clk $end
$var wire 1 % reset $end
$var wire 32 K" d [31:0] $end
$var reg 32 L" q [31:0] $end
$upscope $end
$scope module r2Reg $end
$var wire 1 $ clk $end
$var wire 1 % reset $end
$var wire 32 M" d [31:0] $end
$var reg 32 N" q [31:0] $end
$upscope $end
$scope module ra1mux $end
$var wire 4 O" d0 [3:0] $end
$var wire 4 P" d1 [3:0] $end
$var wire 1 Q" s $end
$var wire 4 R" y [3:0] $end
$upscope $end
$scope module ra2mux $end
$var wire 4 S" d0 [3:0] $end
$var wire 4 T" d1 [3:0] $end
$var wire 1 U" s $end
$var wire 4 V" y [3:0] $end
$upscope $end
$scope module readdatareg $end
$var wire 1 $ clk $end
$var wire 1 % reset $end
$var wire 32 W" d [31:0] $end
$var reg 32 X" q [31:0] $end
$upscope $end
$scope module resmux $end
$var wire 32 Y" d0 [31:0] $end
$var wire 32 Z" d1 [31:0] $end
$var wire 32 [" d2 [31:0] $end
$var wire 2 \" s [1:0] $end
$var wire 32 ]" y [31:0] $end
$upscope $end
$scope module rf $end
$var wire 1 $ clk $end
$var wire 32 ^" r15 [31:0] $end
$var wire 4 _" ra1 [3:0] $end
$var wire 4 `" ra2 [3:0] $end
$var wire 4 a" wa3 [3:0] $end
$var wire 32 b" wd3 [31:0] $end
$var wire 1 , we3 $end
$var wire 32 c" rd2 [31:0] $end
$var wire 32 d" rd1 [31:0] $end
$upscope $end
$scope module shft $end
$var wire 32 e" rm [31:0] $end
$var wire 2 f" sh [1:0] $end
$var wire 5 g" shamt [4:0] $end
$var reg 32 h" shift [31:0] $end
$upscope $end
$scope module srcAtoZero $end
$var wire 32 i" d0 [31:0] $end
$var wire 32 j" d1 [31:0] $end
$var wire 1 ) s $end
$var wire 32 k" y [31:0] $end
$upscope $end
$scope module srcamux $end
$var wire 32 l" d0 [31:0] $end
$var wire 32 m" d1 [31:0] $end
$var wire 1 n" s $end
$var wire 32 o" y [31:0] $end
$upscope $end
$scope module srcbmux $end
$var wire 32 p" d0 [31:0] $end
$var wire 32 q" d1 [31:0] $end
$var wire 32 r" d2 [31:0] $end
$var wire 2 s" s [1:0] $end
$var wire 32 t" y [31:0] $end
$upscope $end
$upscope $end
$upscope $end
$scope module mem $end
$var wire 32 u" a [31:0] $end
$var wire 1 $ clk $end
$var wire 32 v" wd [31:0] $end
$var wire 1 " we $end
$var wire 32 w" rd [31:0] $end
$upscope $end
$upscope $end
$upscope $end
$enddefinitions $end
#0
$dumpvars
b11100000010011110000000000001111 w"
b0 v"
b0 u"
b100 t"
b10 s"
b100 r"
b0 q"
b0 p"
b0 o"
1n"
b0 m"
b0 l"
b0 k"
b0 j"
b0 i"
b0 h"
b0 g"
b0 f"
b0 e"
bx d"
bx c"
b100 b"
b0 a"
b0 `"
b0 _"
b100 ^"
b100 ]"
b10 \"
b100 ["
b0 Z"
b0 Y"
b0 X"
b11100000010011110000000000001111 W"
b0 V"
0U"
b0 T"
b0 S"
b0 R"
0Q"
b1111 P"
b0 O"
b0 N"
bx M"
b0 L"
bx K"
b0 J"
b100 I"
b0 H"
b11100000010011110000000000001111 G"
b0 F"
b0 E"
b0 D"
b0 C"
b100 B"
bx A"
bx @"
b0 ?"
bx >"
bx ="
bx <"
bx ;"
b100 :"
b0 9"
b100 8"
b0 7"
b0 6"
b100 5"
b100 4"
b0 3"
b100 2"
01"
00"
0/"
0."
b0 -"
b0 ,"
b100 +"
b0 *"
b0 )"
b0 ("
b0 '"
b100 &"
b0 %"
b0 $"
b0 #"
b0 ""
b0 !"
b0 ~
b0 }
bx |
bx {
b11100000010011110000000000001111 z
b100 y
b0 x
b100 w
b0 v
b0 u
b0 t
b10 s
b0 r
b0 q
b10 p
b1 o
b0 n
b0 m
b1 l
b1000101001100 k
b1 j
b10 i
b10 h
b0 g
b0 f
b0 e
b0 d
b0 c
0b
b1 a
b10 `
0_
b10 ^
b0 ]
b0 \
b0 [
b0 Z
b0 Y
0X
b0 W
b0 V
0U
b0 T
0S
0R
0Q
0P
1O
b0 N
b0 M
b0 L
0K
0J
b0 I
b0 H
b0 G
b0 F
b0 E
b0 D
b1 C
b10 B
b0 A
b0 @
0?
1>
0=
b0 <
0;
b10 :
b0 9
b0 8
b0 7
b1 6
b10 5
b0 4
03
12
b0 1
b0 0
1/
b11100000010011110000000000001111 .
b0 -
0,
b10 +
b0 *
0)
b0 (
b11100000010011110000000000001111 '
b0 &
1%
1$
b0 #
0"
b0 !
$end
#5
0$
#10
1$
#15
0$
#20
1$
#22
0%
#25
0$
#30
b1000 {
b1000 M"
b1000 c"
b1000 |
b1000 K"
b1000 d"
1K
b1000 y
b1000 +"
b1000 I"
b1000 ]"
b1000 ^"
b1000 b"
0/
b1111 #"
b1111 F"
b1111 q"
b1111 }
b1111 V"
b1111 `"
b1111 ~
b1111 R"
b1111 _"
b100 Z
b100 f
b1110 F
b1110 M
b100 9"
b1000 &"
b1000 8"
b1000 B"
b1000 ["
0>
02
bx u
bx h"
bx p"
bx t
bx k"
bx l"
b10011110000000000001111 E"
b1111 S"
b1111 O"
b11100000010011110000 9
b1000 2"
b100 x
b100 6"
b100 o"
b11100010100000000001000001001110 '
b11100010100000000001000001001110 .
b11100010100000000001000001001110 z
b11100010100000000001000001001110 G"
b11100010100000000001000001001110 W"
b11100010100000000001000001001110 w"
b100 #
b100 (
b100 4
b100 %"
b100 *"
b100 u"
b1001100 k
b110 l
b100 '"
b100 C"
b100 Y"
bx !
bx &
bx *
bx v
bx N"
bx e"
bx v"
bx )"
bx L"
bx i"
b11100000010011110000000000001111 $"
b11100000010011110000000000001111 X"
b11100000010011110000000000001111 Z"
b11100000010011110000000000001111 0
b11100000010011110000000000001111 ""
b11100000010011110000000000001111 H"
b100 !"
b100 ,"
b100 J"
b100 m"
b1 m
1$
#35
0$
#40
b1 W
b10 T
11"
b110 7
b110 D
b110 L
b110 ("
b110 7"
1."
b1000 9"
b1000 :"
b11111111111111111111111111110111 4"
b1000 x
b1000 6"
b1000 o"
b1000 w
b1000 5"
b1000 t"
b0 &"
b0 8"
b0 B"
b0 ["
b100000000000000000000000000000000 2"
0n"
b1 8
b1 E
b1 c
b1 n
b1 -"
b0 +
b0 :
b0 ^
b0 h
b0 s
b0 \"
b0 6
b0 C
b0 a
b0 j
b0 o
b0 5
b0 B
b0 `
b0 i
b0 p
b0 s"
1b
b1 k
b1000 l
b1000 t
b1000 k"
b1000 l"
b1000 u
b1000 h"
b1000 p"
b110 m
1J
b11100010100000000001000001001110 $"
b11100010100000000001000001001110 X"
b11100010100000000001000001001110 Z"
b1000 )"
b1000 L"
b1000 i"
b1000 !
b1000 &
b1000 *
b1000 v
b1000 N"
b1000 e"
b1000 v"
b1000 '"
b1000 C"
b1000 Y"
1$
#45
0$
#50
b0 T
00"
0/"
0."
b0 W
b1000 4"
b0 7
b0 D
b0 L
b0 ("
b0 7"
01"
b10000 &"
b10000 8"
b10000 B"
b10000 ["
b10000 2"
b0 |
b0 K"
b0 d"
b0 {
b0 M"
b0 c"
1,
b0 8
b0 E
b0 c
b0 n
b0 -"
b0 y
b0 +"
b0 I"
b0 ]"
b0 ^"
b0 b"
1;
0b
b1000000000 k
b0 l
b0 '"
b0 C"
b0 Y"
b1000 m
1$
#55
0$
#60
b100 :"
b100 4"
1/
0,
1n"
b100 9"
b1000 &"
b1000 8"
b1000 B"
b1000 ["
b100 w
b100 5"
b100 t"
b1000 |
b1000 K"
b1000 d"
b1000 {
b1000 M"
b1000 c"
1>
0;
12
b10 +
b10 :
b10 ^
b10 h
b10 s
b10 \"
b1 6
b1 C
b1 a
b1 j
b1 o
b10 5
b10 B
b10 `
b10 i
b10 p
b10 s"
b1000 2"
b100 x
b100 6"
b100 o"
b1000 y
b1000 +"
b1000 I"
b1000 ]"
b1000 ^"
b1000 b"
b1000101001100 k
b1 l
b0 t
b0 k"
b0 l"
b0 u
b0 h"
b0 p"
b0 m
b0 )"
b0 L"
b0 i"
b0 !
b0 &
b0 *
b0 v
b0 N"
b0 e"
b0 v"
b10000 '"
b10000 C"
b10000 Y"
1$
#65
0$
#70
bx {
bx M"
bx c"
b0 |
b0 K"
b0 d"
b1100 y
b1100 +"
b1100 I"
b1100 ]"
b1100 ^"
b1100 b"
0/
b1001110 #"
b1001110 F"
b1001110 q"
b1110 }
b1110 V"
b1110 `"
b0 ~
b0 R"
b0 _"
b101000 Z
b101000 f
b1 ]
b1000 9"
b1100 &"
b1100 8"
b1100 B"
b1100 ["
0>
02
b1000 t
b1000 k"
b1000 l"
b10 f"
b100000000001000001001110 E"
b1 a"
b1 T"
b1110 S"
b0 O"
b11100010100000000001 9
b1100 2"
b1000 x
b1000 6"
b1000 o"
b11100001101000000001010000000001 '
b11100001101000000001010000000001 .
b11100001101000000001010000000001 z
b11100001101000000001010000000001 G"
b11100001101000000001010000000001 W"
b11100001101000000001010000000001 w"
b1000 #
b1000 (
b1000 4
b1000 %"
b1000 *"
b1000 u"
b1001100 k
b111 l
b1000 '"
b1000 C"
b1000 Y"
b1000 !
b1000 &
b1000 *
b1000 v
b1000 N"
b1000 e"
b1000 v"
b1000 )"
b1000 L"
b1000 i"
b11100010100000000001000001001110 0
b11100010100000000001000001001110 ""
b11100010100000000001000001001110 H"
b1000 !"
b1000 ,"
b1000 J"
b1000 m"
b1 m
1$
#75
0$
#80
b0 9"
b1001110 :"
b1001110 4"
b1001110 &"
b1001110 8"
b1001110 B"
b1001110 ["
b1001110 2"
b0 x
b0 6"
b0 o"
b1001110 w
b1001110 5"
b1001110 t"
0n"
b0 +
b0 :
b0 ^
b0 h
b0 s
b0 \"
b0 6
b0 C
b0 a
b0 j
b0 o
b1 5
b1 B
b1 `
b1 i
b1 p
b1 s"
1b
b11 k
b1000 l
b0 t
b0 k"
b0 l"
b111 m
b11100001101000000001010000000001 $"
b11100001101000000001010000000001 X"
b11100001101000000001010000000001 Z"
b0 )"
b0 L"
b0 i"
bx !
bx &
bx *
bx v
bx N"
bx e"
bx v"
b1100 '"
b1100 C"
b1100 Y"
1$
#85
0$
#90
b1 W
b100 7
b100 D
b100 L
b100 ("
b100 7"
11"
b0 &"
b0 8"
b0 B"
b0 ["
b0 :"
b0 2"
b0 4"
b0 w
b0 5"
b0 t"
1,
b1001110 y
b1001110 +"
b1001110 I"
b1001110 ]"
b1001110 ^"
b1001110 b"
1;
b0 5
b0 B
b0 `
b0 i
b0 p
b0 s"
0b
b1000000000 k
b0 l
b1001110 '"
b1001110 C"
b1001110 Y"
b1000 m
1$
#95
0$
#100
b0 W
b1000 9"
b100 :"
b100 4"
b0 7
b0 D
b0 L
b0 ("
b0 7"
01"
b1100 &"
b1100 8"
b1100 B"
b1100 ["
b1100 2"
b1000 x
b1000 6"
b1000 o"
b100 w
b100 5"
b100 t"
1/
0,
1n"
1>
0;
12
b10 +
b10 :
b10 ^
b10 h
b10 s
b10 \"
b1 6
b1 C
b1 a
b1 j
b1 o
b10 5
b10 B
b10 `
b10 i
b10 p
b10 s"
b1100 y
b1100 +"
b1100 I"
b1100 ]"
b1100 ^"
b1100 b"
b1000101001100 k
b1 l
b0 m
b0 '"
b0 C"
b0 Y"
1$
#105
0$
#110
1)
b1001110 {
b1001110 M"
b1001110 c"
b10000 y
b10000 +"
b10000 I"
b10000 ]"
b10000 ^"
b10000 b"
0/
bx00000000 u
bx00000000 h"
bx00000000 p"
b1 #"
b1 F"
b1 q"
b1 }
b1 V"
b1 `"
b11010 Z
b11010 f
b1100 9"
b10000 &"
b10000 8"
b10000 B"
b10000 ["
0>
02
b0 f"
b1000 g"
b101000000001010000000001 E"
b1 S"
b11100001101000000001 9
b10000 2"
b1100 x
b1100 6"
b1100 o"
b11100010100000010001000001110011 '
b11100010100000010001000001110011 .
b11100010100000010001000001110011 z
b11100010100000010001000001110011 G"
b11100010100000010001000001110011 W"
b11100010100000010001000001110011 w"
b1100 #
b1100 (
b1100 4
b1100 %"
b1100 *"
b1100 u"
b1001100 k
b110 l
b1100 '"
b1100 C"
b1100 Y"
b11100001101000000001010000000001 0
b11100001101000000001010000000001 ""
b11100001101000000001010000000001 H"
b1100 !"
b1100 ,"
b1100 J"
b1100 m"
b1 m
1$
#115
0$
#120
b0 9"
b100111000000000 :"
b100111000000000 4"
b100111000000000 &"
b100111000000000 8"
b100111000000000 B"
b100111000000000 ["
b100111000000000 2"
b0 x
b0 6"
b0 o"
b100111000000000 w
b100111000000000 5"
b100111000000000 t"
0n"
b0 +
b0 :
b0 ^
b0 h
b0 s
b0 \"
b0 6
b0 C
b0 a
b0 j
b0 o
b0 5
b0 B
b0 `
b0 i
b0 p
b0 s"
1b
b1 k
b1000 l
b100111000000000 u
b100111000000000 h"
b100111000000000 p"
b110 m
b11100010100000010001000001110011 $"
b11100010100000010001000001110011 X"
b11100010100000010001000001110011 Z"
b1001110 !
b1001110 &
b1001110 *
b1001110 v
b1001110 N"
b1001110 e"
b1001110 v"
b10000 '"
b10000 C"
b10000 Y"
1$
#125
0$
#130
1,
b100111000000000 y
b100111000000000 +"
b100111000000000 I"
b100111000000000 ]"
b100111000000000 ^"
b100111000000000 b"
1;
0b
b1000000000 k
b0 l
b100111000000000 '"
b100111000000000 C"
b100111000000000 Y"
b1000 m
1$
#135
0$
#140
b10000 y
b10000 +"
b10000 I"
b10000 ]"
b10000 ^"
b10000 b"
b1100 9"
b100 :"
b100 4"
b10000 &"
b10000 8"
b10000 B"
b10000 ["
b10000 2"
b1100 x
b1100 6"
b1100 o"
b100 w
b100 5"
b100 t"
1/
0,
1n"
1>
0;
12
b10 +
b10 :
b10 ^
b10 h
b10 s
b10 \"
b1 6
b1 C
b1 a
b1 j
b1 o
b10 5
b10 B
b10 `
b10 i
b10 p
b10 s"
b1000101001100 k
b1 l
b100111000000000 {
b100111000000000 M"
b100111000000000 c"
b0 m
1$
#145
0$
#150
0)
bx {
bx M"
bx c"
b100111000000000 |
b100111000000000 K"
b100111000000000 d"
b10100 y
b10100 +"
b10100 I"
b10100 ]"
b10100 ^"
b10100 b"
0/
b1110011 #"
b1110011 F"
b1110011 q"
b11 }
b11 V"
b11 `"
b1 ~
b1 R"
b1 _"
b101000 Z
b101000 f
b10000 9"
b10100 &"
b10100 8"
b10100 B"
b10100 ["
0>
02
b0 u
b0 h"
b0 p"
b11 f"
b0 g"
b100000010001000001110011 E"
b11 S"
b1 O"
b11100010100000010001 9
b10100 2"
b10000 x
b10000 6"
b10000 o"
b11100010100000000000000001001001 '
b11100010100000000000000001001001 .
b11100010100000000000000001001001 z
b11100010100000000000000001001001 G"
b11100010100000000000000001001001 W"
b11100010100000000000000001001001 w"
b10000 #
b10000 (
b10000 4
b10000 %"
b10000 *"
b10000 u"
b1001100 k
b111 l
b10000 '"
b10000 C"
b10000 Y"
b100111000000000 !
b100111000000000 &
b100111000000000 *
b100111000000000 v
b100111000000000 N"
b100111000000000 e"
b100111000000000 v"
b11100010100000010001000001110011 0
b11100010100000010001000001110011 ""
b11100010100000010001000001110011 H"
b10000 !"
b10000 ,"
b10000 J"
b10000 m"
b1 m
1$
#155
0$
#160
b100111000000000 9"
b1110011 :"
b1110011 4"
b100111001110011 &"
b100111001110011 8"
b100111001110011 B"
b100111001110011 ["
b100111001110011 2"
b100111000000000 x
b100111000000000 6"
b100111000000000 o"
b1110011 w
b1110011 5"
b1110011 t"
0n"
b0 +
b0 :
b0 ^
b0 h
b0 s
b0 \"
b0 6
b0 C
b0 a
b0 j
b0 o
b1 5
b1 B
b1 `
b1 i
b1 p
b1 s"
1b
b11 k
b1000 l
b100111000000000 t
b100111000000000 k"
b100111000000000 l"
b111 m
b11100010100000000000000001001001 $"
b11100010100000000000000001001001 X"
b11100010100000000000000001001001 Z"
b100111000000000 )"
b100111000000000 L"
b100111000000000 i"
bx !
bx &
bx *
bx v
bx N"
bx e"
bx v"
b10100 '"
b10100 C"
b10100 Y"
1$
#165
0$
#170
b100111000000000 &"
b100111000000000 8"
b100111000000000 B"
b100111000000000 ["
b0 :"
b100111000000000 2"
b0 4"
b0 w
b0 5"
b0 t"
1,
b100111001110011 y
b100111001110011 +"
b100111001110011 I"
b100111001110011 ]"
b100111001110011 ^"
b100111001110011 b"
1;
b0 5
b0 B
b0 `
b0 i
b0 p
b0 s"
0b
b1000000000 k
b0 l
b100111001110011 '"
b100111001110011 C"
b100111001110011 Y"
b1000 m
1$
#175
0$
#180
b10000 9"
b100 :"
b100 4"
b10100 &"
b10100 8"
b10100 B"
b10100 ["
b10100 2"
b10000 x
b10000 6"
b10000 o"
b100 w
b100 5"
b100 t"
1/
0,
1n"
1>
0;
12
b10 +
b10 :
b10 ^
b10 h
b10 s
b10 \"
b1 6
b1 C
b1 a
b1 j
b1 o
b10 5
b10 B
b10 `
b10 i
b10 p
b10 s"
b10100 y
b10100 +"
b10100 I"
b10100 ]"
b10100 ^"
b10100 b"
b1000101001100 k
b1 l
b100111001110011 |
b100111001110011 K"
b100111001110011 d"
b0 m
b100111000000000 '"
b100111000000000 C"
b100111000000000 Y"
1$
#185
0$
#190
b0 |
b0 K"
b0 d"
b11000 y
b11000 +"
b11000 I"
b11000 ]"
b11000 ^"
b11000 b"
0/
b1001001 #"
b1001001 F"
b1001001 q"
b1001 }
b1001 V"
b1001 `"
b0 ~
b0 R"
b0 _"
b0 ]
b10100 9"
b11000 &"
b11000 8"
b11000 B"
b11000 ["
0>
02
b100111001110011 t
b100111001110011 k"
b100111001110011 l"
b10 f"
b100000000000000001001001 E"
b0 a"
b0 T"
b1001 S"
b0 O"
b11100010100000000000 9
b11000 2"
b10100 x
b10100 6"
b10100 o"
b11100001101000000000010000000000 '
b11100001101000000000010000000000 .
b11100001101000000000010000000000 z
b11100001101000000000010000000000 G"
b11100001101000000000010000000000 W"
b11100001101000000000010000000000 w"
b10100 #
b10100 (
b10100 4
b10100 %"
b10100 *"
b10100 u"
b1001100 k
b111 l
b10100 '"
b10100 C"
b10100 Y"
b100111001110011 )"
b100111001110011 L"
b100111001110011 i"
b11100010100000000000000001001001 0
b11100010100000000000000001001001 ""
b11100010100000000000000001001001 H"
b10100 !"
b10100 ,"
b10100 J"
b10100 m"
b1 m
1$
#195
0$
#200
b0 9"
b1001001 :"
b1001001 4"
b1001001 &"
b1001001 8"
b1001001 B"
b1001001 ["
b1001001 2"
b0 x
b0 6"
b0 o"
b1001001 w
b1001001 5"
b1001001 t"
0n"
b0 +
b0 :
b0 ^
b0 h
b0 s
b0 \"
b0 6
b0 C
b0 a
b0 j
b0 o
b1 5
b1 B
b1 `
b1 i
b1 p
b1 s"
1b
b11 k
b1000 l
b0 t
b0 k"
b0 l"
b111 m
b11100001101000000000010000000000 $"
b11100001101000000000010000000000 X"
b11100001101000000000010000000000 Z"
b0 )"
b0 L"
b0 i"
b11000 '"
b11000 C"
b11000 Y"
1$
#205
0$
#210
b1 W
b100 7
b100 D
b100 L
b100 ("
b100 7"
11"
b0 &"
b0 8"
b0 B"
b0 ["
b0 :"
b0 2"
b0 4"
b0 w
b0 5"
b0 t"
1,
b1001001 y
b1001001 +"
b1001001 I"
b1001001 ]"
b1001001 ^"
b1001001 b"
1;
b0 5
b0 B
b0 `
b0 i
b0 p
b0 s"
0b
b1000000000 k
b0 l
b1001001 '"
b1001001 C"
b1001001 Y"
b1000 m
1$
#215
0$
#220
b0 W
b10100 9"
b100 :"
b100 4"
b0 7
b0 D
b0 L
b0 ("
b0 7"
01"
b11000 &"
b11000 8"
b11000 B"
b11000 ["
b11000 2"
b10100 x
b10100 6"
b10100 o"
b100 w
b100 5"
b100 t"
1/
0,
1n"
1>
0;
12
b10 +
b10 :
b10 ^
b10 h
b10 s
b10 \"
b1 6
b1 C
b1 a
b1 j
b1 o
b10 5
b10 B
b10 `
b10 i
b10 p
b10 s"
b11000 y
b11000 +"
b11000 I"
b11000 ]"
b11000 ^"
b11000 b"
b1000101001100 k
b1 l
b1001001 |
b1001001 K"
b1001001 d"
b0 m
b0 '"
b0 C"
b0 Y"
1$
#225
0$
#230
1)
b1001001 {
b1001001 M"
b1001001 c"
b11100 y
b11100 +"
b11100 I"
b11100 ]"
b11100 ^"
b11100 b"
0/
bx00000000 u
bx00000000 h"
bx00000000 p"
b0 #"
b0 F"
b0 q"
b0 }
b0 V"
b0 `"
b11010 Z
b11010 f
b11000 9"
b11100 &"
b11100 8"
b11100 B"
b11100 ["
0>
02
b0 t
b0 k"
b0 l"
b0 f"
b1000 g"
b101000000000010000000000 E"
b0 S"
b11100001101000000000 9
b11100 2"
b11000 x
b11000 6"
b11000 o"
b11100010100000000000000011000110 '
b11100010100000000000000011000110 .
b11100010100000000000000011000110 z
b11100010100000000000000011000110 G"
b11100010100000000000000011000110 W"
b11100010100000000000000011000110 w"
b11000 #
b11000 (
b11000 4
b11000 %"
b11000 *"
b11000 u"
b1001100 k
b110 l
b11000 '"
b11000 C"
b11000 Y"
b1001001 )"
b1001001 L"
b1001001 i"
b11100001101000000000010000000000 0
b11100001101000000000010000000000 ""
b11100001101000000000010000000000 H"
b11000 !"
b11000 ,"
b11000 J"
b11000 m"
b1 m
1$
#235
0$
#240
b0 9"
b100100100000000 :"
b100100100000000 4"
b100100100000000 &"
b100100100000000 8"
b100100100000000 B"
b100100100000000 ["
b100100100000000 2"
b0 x
b0 6"
b0 o"
b100100100000000 w
b100100100000000 5"
b100100100000000 t"
0n"
b0 +
b0 :
b0 ^
b0 h
b0 s
b0 \"
b0 6
b0 C
b0 a
b0 j
b0 o
b0 5
b0 B
b0 `
b0 i
b0 p
b0 s"
1b
b1 k
b1000 l
b100100100000000 u
b100100100000000 h"
b100100100000000 p"
b110 m
b11100010100000000000000011000110 $"
b11100010100000000000000011000110 X"
b11100010100000000000000011000110 Z"
b1001001 !
b1001001 &
b1001001 *
b1001001 v
b1001001 N"
b1001001 e"
b1001001 v"
b11100 '"
b11100 C"
b11100 Y"
1$
#245
0$
