src/multi_tb.vcd
$date
	Fri Nov 24 10:35:40 2023
$end
$version
	Icarus Verilog
$end
$timescale
	1s
$end
$scope module testbench $end
$var wire 32 ! WriteData [31:0] $end
$var wire 1 " MemWrite $end
$var wire 32 # DataAdr [31:0] $end
$var reg 1 $ clk $end
$var reg 1 % reset $end
$scope module dut $end
$var wire 1 $ clk $end
$var wire 1 % reset $end
$var wire 32 & WriteData [31:0] $end
$var wire 32 ' ReadData [31:0] $end
$var wire 1 " MemWrite $end
$var wire 32 ( Adr [31:0] $end
$scope module arm $end
$var wire 1 $ clk $end
$var wire 1 % reset $end
$var wire 32 ) WriteData [31:0] $end
$var wire 2 * ResultSrc [1:0] $end
$var wire 1 + RegWrite $end
$var wire 2 , RegSrc [1:0] $end
$var wire 32 - ReadData [31:0] $end
$var wire 1 . PCWrite $end
$var wire 1 " MemWrite $end
$var wire 32 / Instr [31:0] $end
$var wire 2 0 ImmSrc [1:0] $end
$var wire 1 1 IRWrite $end
$var wire 1 2 AdrSrc $end
$var wire 32 3 Adr [31:0] $end
$var wire 2 4 ALUSrcB [1:0] $end
$var wire 2 5 ALUSrcA [1:0] $end
$var wire 4 6 ALUFlags [3:0] $end
$var wire 3 7 ALUControl [2:0] $end
$scope module c $end
$var wire 20 8 Instr [31:12] $end
$var wire 1 $ clk $end
$var wire 1 % reset $end
$var wire 2 9 ResultSrc [1:0] $end
$var wire 1 + RegWrite $end
$var wire 1 : RegW $end
$var wire 2 ; RegSrc [1:0] $end
$var wire 1 . PCWrite $end
$var wire 1 < PCS $end
$var wire 1 = NextPC $end
$var wire 1 " MemWrite $end
$var wire 1 > MemW $end
$var wire 2 ? ImmSrc [1:0] $end
$var wire 1 1 IRWrite $end
$var wire 2 @ FlagW [1:0] $end
$var wire 1 2 AdrSrc $end
$var wire 2 A ALUSrcB [1:0] $end
$var wire 2 B ALUSrcA [1:0] $end
$var wire 4 C ALUFlags [3:0] $end
$var wire 3 D ALUControl [2:0] $end
$scope module cl $end
$var wire 4 E Cond [3:0] $end
$var wire 2 F FlagWrite [1:0] $end
$var wire 1 " MemWrite $end
$var wire 1 . PCWrite $end
$var wire 1 + RegWrite $end
$var wire 1 $ clk $end
$var wire 1 % reset $end
$var wire 1 : RegW $end
$var wire 1 < PCS $end
$var wire 1 = NextPC $end
$var wire 1 > MemW $end
$var wire 4 G Flags [3:0] $end
$var wire 2 H FlagW [1:0] $end
$var wire 1 I CondExDelayed $end
$var wire 1 J CondEx $end
$var wire 4 K ALUFlags [3:0] $end
$scope module cc $end
$var wire 4 L Cond [3:0] $end
$var wire 4 M Flags [3:0] $end
$var wire 1 N ge $end
$var wire 1 O zero $end
$var wire 1 P overflow $end
$var wire 1 Q neg $end
$var wire 1 R carry $end
$var reg 1 J CondEx $end
$upscope $end
$scope module condreg $end
$var wire 1 $ clk $end
$var wire 1 J d $end
$var wire 1 % reset $end
$var parameter 32 S WIDTH $end
$var reg 1 I q $end
$upscope $end
$scope module flagreg0 $end
$var wire 1 $ clk $end
$var wire 2 T d [1:0] $end
$var wire 1 U en $end
$var wire 1 % reset $end
$var parameter 32 V WIDTH $end
$var reg 2 W q [1:0] $end
$upscope $end
$scope module flagreg1 $end
$var wire 1 $ clk $end
$var wire 2 X d [1:0] $end
$var wire 1 Y en $end
$var wire 1 % reset $end
$var parameter 32 Z WIDTH $end
$var reg 2 [ q [1:0] $end
$upscope $end
$upscope $end
$scope module dec $end
$var wire 6 \ Funct [5:0] $end
$var wire 2 ] ImmSrc [1:0] $end
$var wire 2 ^ Op [1:0] $end
$var wire 1 < PCS $end
$var wire 4 _ Rd [3:0] $end
$var wire 1 $ clk $end
$var wire 1 % reset $end
$var wire 2 ` ResultSrc [1:0] $end
$var wire 1 : RegW $end
$var wire 1 = NextPC $end
$var wire 1 > MemW $end
$var wire 1 1 IRWrite $end
$var wire 1 a Branch $end
$var wire 1 2 AdrSrc $end
$var wire 2 b ALUSrcB [1:0] $end
$var wire 2 c ALUSrcA [1:0] $end
$var wire 1 d ALUOp $end
$var reg 3 e ALUControl [2:0] $end
$var reg 2 f FlagW [1:0] $end
$var reg 2 g RegSrc [1:0] $end
$scope module fsm $end
$var wire 6 h Funct [5:0] $end
$var wire 2 i Op [1:0] $end
$var wire 1 $ clk $end
$var wire 1 % reset $end
$var wire 2 j ResultSrc [1:0] $end
$var wire 1 : RegW $end
$var wire 1 = NextPC $end
$var wire 1 > MemW $end
$var wire 1 1 IRWrite $end
$var wire 1 a Branch $end
$var wire 1 2 AdrSrc $end
$var wire 2 k ALUSrcB [1:0] $end
$var wire 2 l ALUSrcA [1:0] $end
$var wire 1 d ALUOp $end
$var parameter 4 m ALUWB $end
$var parameter 4 n BRANCH $end
$var parameter 4 o DECODE $end
$var parameter 4 p EXECUTEI $end
$var parameter 4 q EXECUTER $end
$var parameter 4 r FETCH $end
$var parameter 4 s MEMADR $end
$var parameter 4 t MEMRD $end
$var parameter 4 u MEMWB $end
$var parameter 4 v MEMWR $end
$var parameter 4 w UNKNOWN $end
$var reg 13 x controls [12:0] $end
$var reg 4 y nextstate [3:0] $end
$var reg 4 z state [3:0] $end
$upscope $end
$upscope $end
$upscope $end
$scope module dp $end
$var wire 3 { ALUControl [2:0] $end
$var wire 2 | ALUSrcA [1:0] $end
$var wire 2 } ALUSrcB [1:0] $end
$var wire 1 2 AdrSrc $end
$var wire 1 1 IRWrite $end
$var wire 2 ~ ImmSrc [1:0] $end
$var wire 32 !" PCNext [31:0] $end
$var wire 1 . PCWrite $end
$var wire 2 "" RegSrc [1:0] $end
$var wire 1 + RegWrite $end
$var wire 2 #" ResultSrc [1:0] $end
$var wire 1 $ clk $end
$var wire 1 % reset $end
$var wire 32 $" toMuxB [31:0] $end
$var wire 32 %" WriteData [31:0] $end
$var wire 32 &" SrcB [31:0] $end
$var wire 32 '" SrcA [31:0] $end
$var wire 32 (" Result [31:0] $end
$var wire 32 )" ReadData [31:0] $end
$var wire 32 *" RD2 [31:0] $end
$var wire 32 +" RD1 [31:0] $end
$var wire 4 ," RA2 [3:0] $end
$var wire 4 -" RA1 [3:0] $end
$var wire 32 ." PC [31:0] $end
$var wire 32 /" Instr [31:0] $end
$var wire 32 0" ExtImm [31:0] $end
$var wire 32 1" Data [31:0] $end
$var wire 32 2" Adr [31:0] $end
$var wire 32 3" ALUResult [31:0] $end
$var wire 32 4" ALUOut [31:0] $end
$var wire 4 5" ALUFlags [3:0] $end
$var wire 32 6" A [31:0] $end
$scope module adrmux $end
$var wire 1 2 s $end
$var wire 32 7" y [31:0] $end
$var wire 32 8" d1 [31:0] $end
$var wire 32 9" d0 [31:0] $end
$var parameter 32 :" WIDTH $end
$upscope $end
$scope module alu $end
$var wire 3 ;" ALUControl [2:0] $end
$var wire 1 <" carry $end
$var wire 1 =" neg $end
$var wire 1 >" overflow $end
$var wire 1 ?" zero $end
$var wire 33 @" sum [32:0] $end
$var wire 16 A" multiplier [15:0] $end
$var wire 32 B" condinvb [31:0] $end
$var wire 32 C" b [31:0] $end
$var wire 32 D" a [31:0] $end
$var wire 4 E" ALUFlags [3:0] $end
$var reg 32 F" Result [31:0] $end
$scope module u1_fmul $end
$var wire 16 G" A [15:0] $end
$var wire 16 H" B [15:0] $end
$var parameter 32 I" MAX_ITERATIONS $end
$var parameter 15 J" ONE $end
$var reg 5 K" E [4:0] $end
$var reg 11 L" m1 [10:0] $end
$var reg 11 M" m2 [10:0] $end
$var reg 10 N" mantisa [9:0] $end
$var reg 16 O" result [15:0] $end
$var reg 22 P" temp_mantisa [21:0] $end
$var integer 32 Q" i [31:0] $end
$upscope $end
$upscope $end
$scope module alumux $end
$var wire 32 R" d2 [31:0] $end
$var wire 2 S" s [1:0] $end
$var wire 32 T" y [31:0] $end
$var wire 32 U" d1 [31:0] $end
$var wire 32 V" d0 [31:0] $end
$var parameter 32 W" WIDTH $end
$upscope $end
$scope module alureg $end
$var wire 1 $ clk $end
$var wire 32 X" d [31:0] $end
$var wire 1 % reset $end
$var parameter 32 Y" WIDTH $end
$var reg 32 Z" q [31:0] $end
$upscope $end
$scope module datareg $end
$var wire 1 $ clk $end
$var wire 1 % reset $end
$var wire 32 [" d [31:0] $end
$var parameter 32 \" WIDTH $end
$var reg 32 ]" q [31:0] $end
$upscope $end
$scope module ext $end
$var wire 2 ^" ImmSrc [1:0] $end
$var wire 24 _" Instr [23:0] $end
$var reg 32 `" ExtImm [31:0] $end
$upscope $end
$scope module instrreg $end
$var wire 1 $ clk $end
$var wire 1 1 en $end
$var wire 1 % reset $end
$var wire 32 a" d [31:0] $end
$var parameter 32 b" WIDTH $end
$var reg 32 c" q [31:0] $end
$upscope $end
$scope module pcreg $end
$var wire 1 $ clk $end
$var wire 32 d" d [31:0] $end
$var wire 1 . en $end
$var wire 1 % reset $end
$var parameter 32 e" WIDTH $end
$var reg 32 f" q [31:0] $end
$upscope $end
$scope module ra1mux $end
$var wire 4 g" d0 [3:0] $end
$var wire 4 h" d1 [3:0] $end
$var wire 1 i" s $end
$var wire 4 j" y [3:0] $end
$var parameter 32 k" WIDTH $end
$upscope $end
$scope module ra2mux $end
$var wire 4 l" d0 [3:0] $end
$var wire 4 m" d1 [3:0] $end
$var wire 1 n" s $end
$var wire 4 o" y [3:0] $end
$var parameter 32 p" WIDTH $end
$upscope $end
$scope module rd1reg $end
$var wire 1 $ clk $end
$var wire 1 % reset $end
$var wire 32 q" d [31:0] $end
$var parameter 32 r" WIDTH $end
$var reg 32 s" q [31:0] $end
$upscope $end
$scope module rd2reg $end
$var wire 1 $ clk $end
$var wire 1 % reset $end
$var wire 32 t" d [31:0] $end
$var parameter 32 u" WIDTH $end
$var reg 32 v" q [31:0] $end
$upscope $end
$scope module rf $end
$var wire 1 $ clk $end
$var wire 32 w" r15 [31:0] $end
$var wire 4 x" ra1 [3:0] $end
$var wire 4 y" ra2 [3:0] $end
$var wire 4 z" wa3 [3:0] $end
$var wire 32 {" wd3 [31:0] $end
$var wire 1 + we3 $end
$var wire 32 |" rd2 [31:0] $end
$var wire 32 }" rd1 [31:0] $end
$upscope $end
$scope module shft $end
$var wire 32 ~" rm [31:0] $end
$var wire 2 !# sh [1:0] $end
$var wire 5 "# shamt [4:0] $end
$var reg 32 ## shift [31:0] $end
$upscope $end
$scope module srcAmux $end
$var wire 32 $# d0 [31:0] $end
$var wire 32 %# d1 [31:0] $end
$var wire 32 &# d2 [31:0] $end
$var wire 2 '# s [1:0] $end
$var wire 32 (# y [31:0] $end
$var parameter 32 )# WIDTH $end
$upscope $end
$scope module srcBmux $end
$var wire 32 *# d0 [31:0] $end
$var wire 32 +# d1 [31:0] $end
$var wire 32 ,# d2 [31:0] $end
$var wire 2 -# s [1:0] $end
$var wire 32 .# y [31:0] $end
$var parameter 32 /# WIDTH $end
$upscope $end
$upscope $end
$upscope $end
$scope module mem $end
$var wire 32 0# a [31:0] $end
$var wire 1 $ clk $end
$var wire 32 1# rd [31:0] $end
$var wire 32 2# wd [31:0] $end
$var wire 1 " we $end
$upscope $end
$upscope $end
$upscope $end
$enddefinitions $end
$comment Show the parameter values. $end
$dumpall
b100000 /#
b100000 )#
b100000 u"
b100000 r"
b100 p"
b100 k"
b100000 e"
b100000 b"
b100000 \"
b100000 Y"
b100000 W"
b11110000000000 J"
b10110 I"
b100000 :"
b1010 w
b101 v
b100 u
b11 t
b10 s
b0 r
b110 q
b111 p
b1 o
b1001 n
b1000 m
b10 Z
b10 V
b1 S
$end
#0
$dumpvars
b0 2#
b11100000010011110000000000001111 1#
b0 0#
b100 .#
b10 -#
b100 ,#
b0 +#
b0 *#
b0 (#
b1 '#
b0 &#
b0 %#
b0 $#
b0 ##
b0 "#
b0 !#
b0 ~"
bx }"
bx |"
b100 {"
b0 z"
b0 y"
b0 x"
b100 w"
b0 v"
bx t"
b0 s"
bx q"
b0 o"
0n"
b0 m"
b0 l"
b0 j"
0i"
b1111 h"
b0 g"
b0 f"
b100 d"
b0 c"
b11100000010011110000000000001111 a"
b0 `"
b0 _"
b0 ^"
b0 ]"
b11100000010011110000000000001111 ["
b0 Z"
b100 X"
b0 V"
b0 U"
b100 T"
b10 S"
b100 R"
bx Q"
bx P"
b0 O"
bx N"
bx M"
bx L"
bx K"
b100 H"
b0 G"
b100 F"
b0 E"
b0 D"
b100 C"
b100 B"
b0 A"
b100 @"
0?"
0>"
0="
0<"
b0 ;"
b0 9"
b100 8"
b0 7"
b0 6"
b0 5"
b0 4"
b100 3"
b0 2"
b0 1"
b0 0"
b0 /"
b0 ."
b0 -"
b0 ,"
bx +"
bx *"
b11100000010011110000000000001111 )"
b100 ("
b0 '"
b100 &"
b0 %"
b0 $"
b10 #"
b0 ""
b100 !"
b0 ~
b10 }
b1 |
b0 {
b0 z
b1 y
b1000101001100 x
b1 l
b10 k
b10 j
b0 i
b0 h
b0 g
b0 f
b0 e
0d
b1 c
b10 b
0a
b10 `
b0 _
b0 ^
b0 ]
b0 \
b0 [
0Y
b0 X
b0 W
0U
b0 T
0R
0Q
0P
0O
1N
b0 M
b0 L
b0 K
0J
0I
b0 H
b0 G
b0 F
b0 E
b0 D
b0 C
b1 B
b10 A
b0 @
b0 ?
0>
1=
0<
b0 ;
0:
b10 9
b0 8
b0 7
b0 6
b1 5
b10 4
b0 3
02
11
b0 0
b0 /
1.
b11100000010011110000000000001111 -
b0 ,
0+
b10 *
b0 )
b0 (
b11100000010011110000000000001111 '
b0 &
1%
1$
b0 #
0"
b0 !
$end
#5
0$
#10
1$
#15
0$
#20
1$
#22
0%
#25
0$
#30
b1000 !"
b1000 d"
b1000 ("
b1000 8"
b1000 T"
b1000 w"
b1000 {"
b1000 *"
b1000 t"
b1000 |"
b1000 +"
b1000 q"
b1000 }"
1J
b100 G"
b1000 3"
b1000 F"
b1000 R"
b1000 X"
0.
b1111 0"
b1111 `"
b1111 +#
b1111 ,"
b1111 o"
b1111 y"
b1111 -"
b1111 j"
b1111 x"
b100 \
b100 h
b1110 E
b1110 L
b1000 @"
b100 '"
b100 D"
b100 (#
b11100010100000000010000000000101 '
b11100010100000000010000000000101 -
b11100010100000000010000000000101 )"
b11100010100000000010000000000101 ["
b11100010100000000010000000000101 a"
b11100010100000000010000000000101 1#
0=
01
bx $"
bx ##
b10011110000000000001111 _"
b1111 l"
b1111 g"
b11100000010011110000 8
b100 #
b100 (
b100 3
b100 2"
b100 7"
b100 0#
b1001100 x
b110 y
b100 4"
b100 V"
b100 Z"
b100 &#
bx !
bx &
bx )
bx %"
bx v"
bx ~"
bx *#
bx 2#
bx 6"
bx s"
bx $#
b11100000010011110000000000001111 1"
b11100000010011110000000000001111 U"
b11100000010011110000000000001111 ]"
b11100000010011110000000000001111 /
b11100000010011110000000000001111 /"
b11100000010011110000000000001111 c"
b100 ."
b100 9"
b100 f"
b100 %#
b1 z
1$
#35
0$
#40
b10 T
1<"
b1000 G"
b1 X
b1000 '"
b1000 D"
b1000 (#
b1000 H"
b110 6
b110 C
b110 K
b110 5"
b110 E"
1?"
b11111111111111111111111111110111 B"
b1000 &"
b1000 C"
b1000 .#
b0 3"
b0 F"
b0 R"
b0 X"
b100000000000000000000000000000000 @"
b1 7
b1 D
b1 e
b1 {
b1 ;"
b0 *
b0 9
b0 `
b0 j
b0 #"
b0 S"
b0 5
b0 B
b0 c
b0 l
b0 |
b0 '#
b0 4
b0 A
b0 b
b0 k
b0 }
b0 -#
1d
b1 x
b1000 y
b1000 $"
b1000 ##
b110 z
1I
b11100010100000000010000000000101 1"
b11100010100000000010000000000101 U"
b11100010100000000010000000000101 ]"
b1000 6"
b1000 s"
b1000 $#
b1000 !
b1000 &
b1000 )
b1000 %"
b1000 v"
b1000 ~"
b1000 *#
b1000 2#
b1000 4"
b1000 V"
b1000 Z"
b1000 &#
1$
#45
0$
#50
b0 T
0>"
0="
0<"
b0 X
b1000 B"
b0 6
b0 C
b0 K
b0 5"
b0 E"
0?"
b10000 3"
b10000 F"
b10000 R"
b10000 X"
b10000 @"
b0 +"
b0 q"
b0 }"
b0 *"
b0 t"
b0 |"
1+
b0 7
b0 D
b0 e
b0 {
b0 ;"
b0 !"
b0 d"
b0 ("
b0 8"
b0 T"
b0 w"
b0 {"
1:
0d
b1000000000 x
b0 y
b0 4"
b0 V"
b0 Z"
b0 &#
b1000 z
1$
#55
0$
#60
b0 X
b0 6
b0 C
b0 K
b0 5"
b0 E"
0?"
1.
0+
b100 G"
b100 H"
b100 B"
b1000 3"
b1000 F"
b1000 R"
b1000 X"
b1000 +"
b1000 q"
b1000 }"
b1000 *"
b1000 t"
b1000 |"
1=
0:
11
b10 *
b10 9
b10 `
b10 j
b10 #"
b10 S"
b1 5
b1 B
b1 c
b1 l
b1 |
b1 '#
b10 4
b10 A
b10 b
b10 k
b10 }
b10 -#
b1000 @"
b100 '"
b100 D"
b100 (#
b100 &"
b100 C"
b100 .#
b1000 !"
b1000 d"
b1000 ("
b1000 8"
b1000 T"
b1000 w"
b1000 {"
b1000101001100 x
b1 y
b0 $"
b0 ##
b0 z
b0 6"
b0 s"
b0 $#
b0 !
b0 &
b0 )
b0 %"
b0 v"
b0 ~"
b0 *#
b0 2#
b10000 4"
b10000 V"
b10000 Z"
b10000 &#
1$
#65
0$
#70
b1100 !"
b1100 d"
b1100 ("
b1100 8"
b1100 T"
b1100 w"
b1100 {"
bx *"
bx t"
bx |"
b0 +"
b0 q"
b0 }"
b1000 G"
b1100 3"
b1100 F"
b1100 R"
b1100 X"
0.
b101 0"
b101 `"
b101 +#
b101 ,"
b101 o"
b101 y"
b0 -"
b0 j"
b0 x"
b101000 \
b101000 h
b10 _
b1100 @"
b1000 '"
b1000 D"
b1000 (#
b11100010100000000011000000001100 '
b11100010100000000011000000001100 -
b11100010100000000011000000001100 )"
b11100010100000000011000000001100 ["
b11100010100000000011000000001100 a"
b11100010100000000011000000001100 1#
0=
01
b1000 $"
b1000 ##
b100000000010000000000101 _"
b10 z"
b10 m"
b101 l"
b0 g"
b11100010100000000010 8
b1000 #
b1000 (
b1000 3
b1000 2"
b1000 7"
b1000 0#
b1001100 x
b111 y
b1000 4"
b1000 V"
b1000 Z"
b1000 &#
b1000 !
b1000 &
b1000 )
b1000 %"
b1000 v"
b1000 ~"
b1000 *#
b1000 2#
b1000 6"
b1000 s"
b1000 $#
b11100010100000000010000000000101 /
b11100010100000000010000000000101 /"
b11100010100000000010000000000101 c"
b1000 ."
b1000 9"
b1000 f"
b1000 %#
b1 z
1$
#75
0$
#80
b0 G"
b101 3"
b101 F"
b101 R"
b101 X"
b0 '"
b0 D"
b0 (#
b101 H"
b101 @"
b101 B"
b101 &"
b101 C"
b101 .#
b0 *
b0 9
b0 `
b0 j
b0 #"
b0 S"
b0 5
b0 B
b0 c
b0 l
b0 |
b0 '#
b1 4
b1 A
b1 b
b1 k
b1 }
b1 -#
1d
b11 x
b1000 y
bx $"
bx ##
b111 z
b11100010100000000011000000001100 1"
b11100010100000000011000000001100 U"
b11100010100000000011000000001100 ]"
b0 6"
b0 s"
b0 $#
bx !
bx &
bx )
bx %"
bx v"
bx ~"
bx *#
bx 2#
b1100 4"
b1100 V"
b1100 Z"
b1100 &#
1$
#85
0$
#90
bx T
x>"
x="
x<"
bx X
bx 6
bx C
bx K
bx 5"
bx E"
x?"
bx 3"
bx F"
bx R"
bx X"
bx H"
bx @"
bx B"
bx &"
bx C"
bx .#
1+
b101 !"
b101 d"
b101 ("
b101 8"
b101 T"
b101 w"
b101 {"
1:
b0 4
b0 A
b0 b
b0 k
b0 }
b0 -#
0d
b1000000000 x
b0 y
b101 4"
b101 V"
b101 Z"
b101 &#
b1000 z
1$
#95
0$
#100
b0 T
0>"
0="
0<"
b0 X
b1000 G"
b0 6
b0 C
b0 K
b0 5"
b0 E"
0?"
b1100 3"
b1100 F"
b1100 R"
b1100 X"
b1000 '"
b1000 D"
b1000 (#
b100 H"
b1100 @"
b100 B"
b100 &"
b100 C"
b100 .#
1.
0+
1=
0:
11
b10 *
b10 9
b10 `
b10 j
b10 #"
b10 S"
b1 5
b1 B
b1 c
b1 l
b1 |
b1 '#
b10 4
b10 A
b10 b
b10 k
b10 }
b10 -#
b1100 !"
b1100 d"
b1100 ("
b1100 8"
b1100 T"
b1100 w"
b1100 {"
b1000101001100 x
b1 y
b0 z
bx 4"
bx V"
bx Z"
bx &#
1$
#105
0$
#110
b10000 !"
b10000 d"
b10000 ("
b10000 8"
b10000 T"
b10000 w"
b10000 {"
b1100 G"
b10000 3"
b10000 F"
b10000 R"
b10000 X"
0.
b1100 0"
b1100 `"
b1100 +#
b1100 ,"
b1100 o"
b1100 y"
b11 _
b10000 @"
b1100 '"
b1100 D"
b1100 (#
b11100010010000110111000000001001 '
b11100010010000110111000000001001 -
b11100010010000110111000000001001 )"
b11100010010000110111000000001001 ["
b11100010010000110111000000001001 a"
b11100010010000110111000000001001 1#
0=
01
b100000000011000000001100 _"
b11 z"
b11 m"
b1100 l"
b11100010100000000011 8
b1100 #
b1100 (
b1100 3
b1100 2"
b1100 7"
b1100 0#
b1001100 x
b111 y
b1100 4"
b1100 V"
b1100 Z"
b1100 &#
b11100010100000000011000000001100 /
b11100010100000000011000000001100 /"
b11100010100000000011000000001100 c"
b1100 ."
b1100 9"
b1100 f"
b1100 %#
b1 z
1$
#115
0$
#120
b0 G"
b1100 3"
b1100 F"
b1100 R"
b1100 X"
b0 '"
b0 D"
b0 (#
b1100 H"
b1100 @"
b1100 B"
b1100 &"
b1100 C"
b1100 .#
b0 *
b0 9
b0 `
b0 j
b0 #"
b0 S"
b0 5
b0 B
b0 c
b0 l
b0 |
b0 '#
b1 4
b1 A
b1 b
b1 k
b1 }
b1 -#
1d
b11 x
b1000 y
b111 z
b11100010010000110111000000001001 1"
b11100010010000110111000000001001 U"
b11100010010000110111000000001001 ]"
b10000 4"
b10000 V"
b10000 Z"
b10000 &#
1$
#125
0$
#130
bx T
x>"
x="
x<"
bx X
bx 6
bx C
bx K
bx 5"
bx E"
x?"
bx 3"
bx F"
bx R"
bx X"
bx H"
bx @"
bx B"
bx &"
bx C"
bx .#
1+
b1100 !"
b1100 d"
b1100 ("
b1100 8"
b1100 T"
b1100 w"
b1100 {"
1:
b0 4
b0 A
b0 b
b0 k
b0 }
b0 -#
0d
b1000000000 x
b0 y
b1100 4"
b1100 V"
b1100 Z"
b1100 &#
b1000 z
1$
#135
0$
#140
b0 T
0>"
0="
0<"
b0 X
b1100 G"
b0 6
b0 C
b0 K
b0 5"
b0 E"
0?"
b10000 3"
b10000 F"
b10000 R"
b10000 X"
b1100 '"
b1100 D"
b1100 (#
b100 H"
b10000 @"
b100 B"
b100 &"
b100 C"
b100 .#
1.
0+
1=
0:
11
b10 *
b10 9
b10 `
b10 j
b10 #"
b10 S"
b1 5
b1 B
b1 c
b1 l
b1 |
b1 '#
b10 4
b10 A
b10 b
b10 k
b10 }
b10 -#
b10000 !"
b10000 d"
b10000 ("
b10000 8"
b10000 T"
b10000 w"
b10000 {"
b1000101001100 x
b1 y
b0 z
bx 4"
bx V"
bx Z"
bx &#
1$
#145
0$
#150
b10100 !"
b10100 d"
b10100 ("
b10100 8"
b10100 T"
b10100 w"
b10100 {"
b1100 +"
b1100 q"
b1100 }"
b10000 G"
b10100 3"
b10100 F"
b10100 R"
b10100 X"
0.
b1001 0"
b1001 `"
b1001 +#
b1001 ,"
b1001 o"
b1001 y"
b11 -"
b11 j"
b11 x"
b100100 \
b100100 h
b111 _
b10100 @"
b10000 '"
b10000 D"
b10000 (#
b11100001100001110100000000000010 '
b11100001100001110100000000000010 -
b11100001100001110100000000000010 )"
b11100001100001110100000000000010 ["
b11100001100001110100000000000010 a"
b11100001100001110100000000000010 1#
0=
01
b10000110111000000001001 _"
b111 z"
b111 m"
b1001 l"
b11 g"
b11100010010000110111 8
b10000 #
b10000 (
b10000 3
b10000 2"
b10000 7"
b10000 0#
b1001100 x
b111 y
b10000 4"
b10000 V"
b10000 Z"
b10000 &#
b11100010010000110111000000001001 /
b11100010010000110111000000001001 /"
b11100010010000110111000000001001 c"
b10000 ."
b10000 9"
b10000 f"
b10000 %#
b1 z
1$
#155
0$
#160
b10 T
b10 6
b10 C
b10 K
b10 5"
b10 E"
1<"
b1100 G"
b1100 '"
b1100 D"
b1100 (#
b1001 H"
b11111111111111111111111111110110 B"
b1001 &"
b1001 C"
b1001 .#
b11 3"
b11 F"
b11 R"
b11 X"
b100000000000000000000000000000011 @"
b1 7
b1 D
b1 e
b1 {
b1 ;"
b0 *
b0 9
b0 `
b0 j
b0 #"
b0 S"
b0 5
b0 B
b0 c
b0 l
b0 |
b0 '#
b1 4
b1 A
b1 b
b1 k
b1 }
b1 -#
1d
b11 x
b1000 y
b111 z
b11100001100001110100000000000010 1"
b11100001100001110100000000000010 U"
b11100001100001110100000000000010 ]"
b1100 6"
b1100 s"
b1100 $#
b10100 4"
b10100 V"
b10100 Z"
b10100 &#
1$
#165
0$
#170
x>"
x="
bx X
bx T
x?"
bx 6
bx C
bx K
bx 5"
bx E"
x<"
bx H"
bx &"
bx C"
bx .#
bx B"
bx 3"
bx F"
bx R"
bx X"
bx @"
1+
b0 7
b0 D
b0 e
b0 {
b0 ;"
b11 !"
b11 d"
b11 ("
b11 8"
b11 T"
b11 w"
b11 {"
1:
b0 4
b0 A
b0 b
b0 k
b0 }
b0 -#
0d
b1000000000 x
b0 y
b11 4"
b11 V"
b11 Z"
b11 &#
b1000 z
1$
#175
0$
#180
b0 T
0>"
0="
0<"
b0 X
b10000 G"
b0 6
b0 C
b0 K
b0 5"
b0 E"
0?"
b10100 3"
b10100 F"
b10100 R"
b10100 X"
b10000 '"
b10000 D"
b10000 (#
b100 H"
b10100 @"
b100 B"
b100 &"
b100 C"
b100 .#
1.
0+
1=
0:
11
b10 *
b10 9
b10 `
b10 j
b10 #"
b10 S"
b1 5
b1 B
b1 c
b1 l
b1 |
b1 '#
b10 4
b10 A
b10 b
b10 k
b10 }
b10 -#
b10100 !"
b10100 d"
b10100 ("
b10100 8"
b10100 T"
b10100 w"
b10100 {"
b1000101001100 x
b1 y
b0 z
bx 4"
bx V"
bx Z"
bx &#
1$
#185
0$
#190
b11000 !"
b11000 d"
b11000 ("
b11000 8"
b11000 T"
b11000 w"
b11000 {"
b101 *"
b101 t"
b101 |"
b11 +"
b11 q"
b11 }"
b10100 G"
b11000 3"
b11000 F"
b11000 R"
b11000 X"
0.
b10 0"
b10 `"
b10 +#
b10 ,"
b10 o"
b10 y"
b111 -"
b111 j"
b111 x"
b11000 \
b11000 h
b100 _
b11000 @"
b10100 '"
b10100 D"
b10100 (#
b11100000000000110101000000000100 '
b11100000000000110101000000000100 -
b11100000000000110101000000000100 )"
b11100000000000110101000000000100 ["
b11100000000000110101000000000100 a"
b11100000000000110101000000000100 1#
0=
01
b100001110100000000000010 _"
b100 z"
b100 m"
b10 l"
b111 g"
b11100001100001110100 8
b10100 #
b10100 (
b10100 3
b10100 2"
b10100 7"
b10100 0#
b1001100 x
b110 y
b10100 4"
b10100 V"
b10100 Z"
b10100 &#
b11100001100001110100000000000010 /
b11100001100001110100000000000010 /"
b11100001100001110100000000000010 c"
b10100 ."
b10100 9"
b10100 f"
b10100 %#
b1 z
1$
#195
0$
#200
b11 G"
b11 '"
b11 D"
b11 (#
b101 H"
b11111111111111111111111111111010 B"
b101 &"
b101 C"
b101 .#
b111 3"
b111 F"
b111 R"
b111 X"
b11111111111111111111111111111110 @"
b11 7
b11 D
b11 e
b11 {
b11 ;"
b0 *
b0 9
b0 `
b0 j
b0 #"
b0 S"
b0 5
b0 B
b0 c
b0 l
b0 |
b0 '#
b0 4
b0 A
b0 b
b0 k
b0 }
b0 -#
1d
b1 x
b1000 y
b101 $"
b101 ##
b110 z
b11100000000000110101000000000100 1"
b11100000000000110101000000000100 U"
b11100000000000110101000000000100 ]"
b11 6"
b11 s"
b11 $#
b101 !
b101 &
b101 )
b101 %"
b101 v"
b101 ~"
b101 *#
b101 2#
b11000 4"
b11000 V"
b11000 Z"
b11000 &#
1$
#205
0$
#210
b0 X
b0 6
b0 C
b0 K
b0 5"
b0 E"
0="
b101 B"
b1000 3"
b1000 F"
b1000 R"
b1000 X"
b1000 @"
1+
b0 7
b0 D
b0 e
b0 {
b0 ;"
b111 !"
b111 d"
b111 ("
b111 8"
b111 T"
b111 w"
b111 {"
1:
0d
b1000000000 x
b0 y
b111 4"
b111 V"
b111 Z"
b111 &#
b1000 z
1$
#215
0$
#220
b10100 G"
b11000 3"
b11000 F"
b11000 R"
b11000 X"
b10100 '"
b10100 D"
b10100 (#
b100 H"
b11000 @"
b100 B"
b100 &"
b100 C"
b100 .#
1.
0+
1=
0:
11
b10 *
b10 9
b10 `
b10 j
b10 #"
b10 S"
b1 5
b1 B
b1 c
b1 l
b1 |
b1 '#
b10 4
b10 A
b10 b
b10 k
b10 }
b10 -#
b11000 !"
b11000 d"
b11000 ("
b11000 8"
b11000 T"
b11000 w"
b11000 {"
b1000101001100 x
b1 y
b0 z
b1000 4"
b1000 V"
b1000 Z"
b1000 &#
1$
#225
0$
